0 0 0.0319368 -11.9946 1000 480.781
0 1 0.023192 -7.62217 375.859 574.708
0 2 0.0196676 -4.32646 338.128 586.99
0 3 0.0279697 -10.7378 308.625 582.161
0 4 0.0191591 -3.24047 606.426 560.507
0 5 0.0269037 -9.91145 336.93 580.863
0 6 0.0297763 -12.9348 198.787 594.677
0 7 0.0297886 -9.44853 1000 497.705
0 8 0.0186971 -3.07852 450.206 577.035
0 9 0.0202699 -4.83759 441.66 573.377
0 10 0.0311463 -10.7563 1000 494.349
0 11 0.0327051 -14.7497 179.78 598.372
0 12 0.0177249 -2.31753 665.638 553.973
0 13 0.0225053 -6.08262 425.894 576.294
0 14 0.0199134 -3.70136 347.249 589.239
0 15 0.0316531 -13.818 128.474 606.426
1 0 0.0123219 -0.117789 1000 503.484
1 1 0.0297806 -12.7845 141.745 605.369
1 2 0.0238268 -7.70019 424.002 571.439
1 3 0.0305852 -10.5031 1000 472.394
1 4 0.0361966 -14.8745 1000 484.736
1 5 0.0384254 -17.8813 1000 444.009
1 6 0.0213303 -5.28655 647.259 549.698
1 7 0.0220582 -3.87941 1000 491.093
1 8 0.0277875 -10.8883 164.06 604.783
1 9 0.0516787 -22.8549 1000 491.553
1 10 0.0185852 -3.0646 443.956 576.188
1 11 0.0145076 0.339187 680.794 556.852
1 12 0.0179272 -3.48864 442.139 573.004
1 13 0.01673 -1.34813 553.096 569.399
1 14 0.0211886 -5.77966 385.281 578.067
1 15 0.026482 -9.87779 174.768 603.81
2 0 0.0258284 -9.14052 152.437 606.443
2 1 0.0315646 -11.9048 1000 481.005
2 2 0.0187692 -2.99745 816.3 537.259
2 3 0.0274582 -11.1929 329.289 575.642
2 4 0.0207227 -4.81543 311.754 590.029
2 5 0.0227084 -6.63038 279.002 591.602
2 6 0.0241016 -7.60708 333.224 585.075
2 7 0.0209563 -3.29511 977.321 492.697
2 8 0.0185457 -3.07248 640.468 554.893
2 9 0.0312145 -11.2307 1000 460.458
2 10 0.0164296 -1.59861 684.319 552.047
2 11 0.0184368 -1.49082 890.767 505.834
2 12 0.0248415 -8.0593 384.355 578.301
2 13 0.0192238 -3.75062 675.753 548.398
2 14 0.0216591 -5.62153 566.661 558.952
2 15 0.0346786 -12.2991 1000 478.331
3 0 0.0217127 -5.86569 754.244 532.641
3 1 0.0333022 -15.9962 100.001 609.043
3 2 0.032726 -15.9825 102.871 607.569
3 3 0.0218234 -5.5107 355.589 583.74
3 4 0.0286606 -11.5663 218.888 595.455
3 5 0.0201364 -4.60107 429.72 576.023
3 6 0.016023 -1.38604 624.529 558.008
3 7 0.0133883 0.58553 1000 521.285
3 8 0.0179585 -3.33985 746.395 537.247
3 9 0.0219448 -5.25489 273.781 595.109
3 10 0.0137045 0.688919 999.998 522.525
3 11 0.0382384 -16.2345 1000 474.369
3 12 0.014161 -0.384754 634.983 554.487
3 13 0.0217329 -5.7192 524.942 563.005
3 14 0.0228942 -6.38544 389.816 580.076
3 15 0.0267835 -10.0409 141.482 608.812
4 0 0.0273846 -11.5796 117.497 608.936
4 1 0.0206613 -5.2624 570.319 555.965
4 2 0.022462 -6.88781 266.93 592.389
4 3 0.0220014 -5.85971 537.769 560.152
4 4 0.0141228 -0.932165 702.385 541.124
4 5 0.0223891 -6.66732 274.203 592.297
4 6 0.0165868 -1.70391 562.428 564.648
4 7 0.0217282 -5.07126 368.896 583.16
4 8 0.031982 -14.5733 136.386 604.581
4 9 0.015238 -0.706547 696.691 550.784
4 10 0.0361855 -15.35 1000 471.108
4 11 0.018888 -3.82542 277.196 593.901
4 12 0.0177626 -2.74341 756.986 541.757
4 13 0.0175246 -2.77864 400.16 580.526
4 14 0.0145813 -0.24128 546.147 567.261
4 15 0.0226843 -6.59073 316.72 587.831
5 0 0.0180086 -3.91749 350.076 582.304
5 1 0.0180864 -2.7129 419.229 578.026
5 2 0.0221926 -6.61913 592.187 549.391
5 3 0.0191513 -4.08139 605.073 553.994
5 4 0.0120302 1.40336 781.551 542.219
5 5 0.0288834 -11.6261 205.102 597.889
5 6 0.0185847 -4.15788 218.885 600.52
5 7 0.0206974 -4.99061 437.61 574.14
5 8 0.027842 -8.66975 1000 473.16
5 9 0.012493 1.41251 885.032 534.46
5 10 0.0183916 -3.4924 665.224 547.526
5 11 0.0224387 -5.96857 422.951 576.869
5 12 0.0254789 -9.48649 225.952 595.245
5 13 0.021016 -5.02839 518.848 566.133
5 14 0.0331702 -11.9516 1000 471.812
5 15 0.0359931 -13.964 1000 494.755
6 0 0.0193202 -4.61094 461.712 567.974
6 1 0.0314804 -11.6191 1000 476.036
6 2 0.0195307 -4.10038 295.192 590.935
6 3 0.0195774 -4.61819 268.778 594.108
6 4 0.0258498 -9.69474 213.209 596.341
6 5 0.0199945 -4.71309 714.767 538.373
6 6 0.021269 -6.14881 349.223 581.307
6 7 0.0182849 -3.58015 458.304 571.269
6 8 0.0136488 -0.562488 1000 508.682
6 9 0.0262894 -9.26069 310.622 584.245
6 10 0.0286314 -11.5059 260.02 588.928
6 11 0.0162035 -1.86337 582.779 560.007
6 12 0.0303511 -10.0739 1000 467.07
6 13 0.0152984 -0.550843 812.878 541.822
6 14 0.0109517 1.3203 654.914 551.567
6 15 0.0186492 -4.63943 539.943 554.329
7 0 0.0283073 -9.22543 1000 470.129
7 1 0.0272778 -9.34185 1000 454.984
7 2 0.0267593 -10.9786 243.033 588.216
7 3 0.0142556 0.539865 971.079 527.367
7 4 0.017417 -3.53878 435.843 571.052
7 5 0.0207095 -5.64871 521.121 559.131
7 6 0.0184851 -4.18941 884.504 513.919
7 7 0.0155023 -1.51932 667.25 548.036
7 8 0.0291392 -12.201 113.812 610.594
7 9 0.0274543 -10.6013 240.761 592.957
7 10 0.0174967 -2.78103 492.491 570.389
7 11 0.0188962 -3.73375 461.42 572.666
7 12 0.0205839 -5.1538 280.48 591.342
7 13 0.0188233 -3.43278 604.979 558.097
7 14 0.020935 -5.08555 418.463 577.282
7 15 0.0226854 -6.91952 183.615 603.968
8 0 0.0224466 -6.24799 496.088 566.072
8 1 0.0167696 -3.07526 669.739 541.914
8 2 0.0304999 -14.2373 168.489 595.685
8 3 0.0277512 -11.6071 258.056 585.207
8 4 0.0150572 -0.965973 615.581 556.719
8 5 0.0201392 -4.98932 450.545 570.86
8 6 0.017404 -3.74456 475.049 563.733
8 7 0.0277919 -11.6791 238.481 588.753
8 8 0.0296539 -12.2698 165.243 602.942
8 9 0.015115 -0.851004 417.727 580.773
8 10 0.0184546 -4.2231 649.235 541.852
8 11 0.0266883 -10.1377 271.68 588.382
8 12 0.0202597 -4.66722 463.826 571.744
8 13 0.0175888 -2.5746 459.824 574.834
8 14 0.0458895 -21.0898 1000 497.474
8 15 0.0304851 -12.669 201.237 597.728
9 0 0.0241362 -7.5357 298.173 589.911
9 1 0.036655 -14.7511 1000 485.739
9 2 0.0142204 -0.838619 1000 512.008
9 3 0.0187602 -3.63954 338.632 585.904
9 4 0.0190083 -3.87855 508.491 566.217
9 5 0.0301071 -12.8922 130.198 607.243
9 6 0.0153843 -2.08933 379.264 579.668
9 7 0.0308538 -13.1588 186.994 597.288
9 8 0.0298213 -13.2035 125.787 606.482
9 9 0.0139181 -0.0585495 999.999 516.749
9 10 0.0239508 -7.88924 292.708 587.814
9 11 0.0212849 -5.34442 377.192 581.28
9 12 0.0224359 -7.36282 268.556 589.3
9 13 0.018187 -3.5359 739.592 537.217
9 14 0.0318432 -14.1452 192.266 596.247
9 15 0.0234491 -7.32165 210.361 601.289
10 0 0.0303498 -12.6834 218.693 592.131
10 1 0.0239163 -7.91667 372.598 577.123
10 2 0.0204991 -5.56314 479.977 563.922
10 3 0.0367747 -16.8383 1000 434.992
10 4 0.0236987 -8.68188 334.072 576.037
10 5 0.0176725 -4.34569 295.443 586.732
10 6 0.0257832 -9.79317 233.065 593.185
10 7 0.0335424 -12.5517 1000 466.021
10 8 0.0236002 -7.4737 326.874 585.226
10 9 0.0189714 -3.68802 485.95 570.55
10 10 0.0277732 -10.6212 191.314 600.885
10 11 0.0163264 -0.561864 605.318 529.8
10 12 0.0328311 -12.5077 1000 461.394
10 13 0.0122114 -0.0270222 620.371 550.655
10 14 0.0264426 -9.80857 147.153 607.193
10 15 0.0170572 -2.32213 483.077 572.641
11 0 0.0297674 -10.462 1000 457.958
11 1 0.0394751 -16.2864 1000 501.035
11 2 0.0173417 -2.64772 477.485 571.923
11 3 0.0209086 -5.53073 376.191 580.006
11 4 0.027948 -12.2258 150.997 601.662
11 5 0.0143506 -0.460536 1000 517.132
11 6 0.0199735 -4.90135 449.048 570.996
11 7 0.0184751 -3.56657 347.789 586.27
11 8 0.0353984 -10.3729 1000 458.597
11 9 0.0208033 -5.24955 460.685 570.152
11 10 0.0265701 -8.39144 1000 460.378
11 11 0.0204195 -4.92505 324.343 587.813
11 12 0.0174032 -2.7455 358.975 585.724
11 13 0.0155076 -1.30069 509.174 569.279
11 14 0.0205964 -4.95796 315.657 589.333
11 15 0.0196092 -4.17447 509.527 567.161
12 0 0.016685 -1.9446 491.944 571.955
12 1 0.0152856 -1.51475 476.369 571.337
12 2 0.0285045 -11.6726 158.94 603.458
12 3 0.0210852 -6.11822 344.275 579.987
12 4 0.0209161 -5.91646 351.527 580.909
12 5 0.0111902 2.50809 1000 525.672
12 6 0.017815 -4.30982 598.052 545.277
12 7 0.023117 -7.45136 258.262 593.1
12 8 0.0169592 -2.04287 532.094 568.443
12 9 0.0197288 -4.40098 594.993 555.637
12 10 0.02247 -6.26563 484.18 568.313
12 11 0.0180052 -3.23486 404.85 580.172
12 12 0.0118847 0.0135231 873.359 517.732
12 13 0.0108917 1.13565 555.478 560.512
12 14 0.0257692 -9.25545 194.879 601.419
12 15 0.0286757 -8.92607 1000 467.928
13 0 0.0276748 -11.0461 100.002 612.343
13 1 0.0306767 -12.9525 225.897 591.312
13 2 0.0372878 -17.3897 1000 417.73
13 3 0.0290217 -11.2996 303.084 582.737
13 4 0.0297099 -12.9764 164.5 600.749
13 5 0.0208022 -3.85236 761.622 509.749
13 6 0.0256342 -10.133 274.9 583.916
13 7 0.0106087 1.16298 662.729 545.735
13 8 0.0224313 -6.52392 530.183 559.535
13 9 0.0299805 -13.3929 125.12 606.525
13 10 0.0256417 -9.37248 266.705 589.066
13 11 0.011555 0.72069 546.12 562.002
13 12 0.0192019 -4.06294 323.971 588.247
13 13 0.0230444 -7.75392 247.517 592.531
13 14 0.0175644 -2.73556 334.002 589.687
13 15 0.0263872 -9.70088 159.418 606.164
14 0 0.0208578 -5.60107 885.248 514.536
14 1 0.0316948 -14.2062 140.613 603.474
14 2 0.0231858 -7.48875 371.471 576.978
14 3 0.0261947 -10.1132 222.516 594.222
14 4 0.0200303 -6.14205 344.959 576.155
14 5 0.0198128 -4.45891 657.535 547.241
14 6 0.0179256 -3.35604 418.217 575.892
14 7 0.0258008 -9.39215 162.012 605.413
14 8 0.028942 -12.1944 133.539 607.511
14 9 0.0226593 -7.94605 402.898 565.876
14 10 0.0139324 -0.106869 392.157 582.648
14 11 0.0267875 -10.2146 184.195 601.711
14 12 0.0192948 -4.45392 369.366 581.79
14 13 0.0207842 -5.57762 451.626 570.233
14 14 0.0180209 -2.97875 600.234 558.329
14 15 0.0207004 -6.22329 239.767 594.771
15 0 0.0134097 0.856779 1000 522.464
15 1 0.0179831 -4.23961 499.28 560.709
15 2 0.0221981 -6.66729 357.25 579.976
15 3 0.0213592 -6.18369 429.02 569.892
15 4 0.0303332 -12.2852 273.001 584.09
15 5 0.0273777 -8.2001 1000 475.278
15 6 0.0329049 -13.29 1000 458.874
15 7 0.0288927 -11.2761 200.005 597.488
15 8 0.0333836 -12.6011 1000 464.795
15 9 0.019578 -4.28196 383.049 580.983
15 10 0.0146826 -1.56292 429.793 573.992
15 11 0.0138455 -0.853704 431.146 573.905
15 12 0.0157999 -1.1739 405.834 582.942
15 13 0.0292576 -11.7382 288.943 584.727
15 14 0.0179312 -3.03446 659.094 550.1
15 15 0.0389581 -17.6975 1000 454.022
16 0 0.034408 -13.9081 1000 447.361
16 1 0.0267959 -10.0441 218.317 595.777
16 2 0.0277718 -11.8633 213.66 591.946
16 3 0.0187882 -4.00476 335.286 586.758
16 4 0.0201548 -4.43328 297.371 592.783
16 5 0.0245522 -8.47675 159.597 605.151
16 6 0.0317991 -11.6376 1000 456.549
16 7 0.0194764 -4.09233 403.942 579.874
16 8 0.0146183 0.272173 779.759 546.761
16 9 0.0246894 -8.66611 153.836 605.866
16 10 0.0320874 -15.0136 100 610.288
16 11 0.0167188 -3.60501 360.854 578.657
16 12 0.0296233 -10.0582 1000 468.602
16 13 0.0180625 -4.53535 205.454 599.88
16 14 0.015092 -0.760552 1000 518.025
16 15 0.0252593 -8.92487 215.42 598.446
17 0 0.0189017 -3.48699 608.392 557.643
17 1 0.030939 -13.4952 139.383 604.921
17 2 0.0210229 -5.7464 410.162 573.048
17 3 0.0184475 -4.46133 293.329 588.552
17 4 0.0183147 -4.32856 435.356 569.762
17 5 0.0372555 -17.283 1000 419.289
17 6 0.0223209 -6.61389 404.099 574.851
17 7 0.0233341 -7.98672 246.707 592.931
17 8 0.0270694 -10.1807 187.593 600.842
17 9 0.0201699 -4.50049 265.287 595.108
17 10 0.0290846 -8.9386 1000 469.736
17 11 0.0265665 -10.6444 282.772 583.54
17 12 0.0507506 -20.6151 1000 463.963
17 13 0.0157795 -1.22097 488.576 573.236
17 14 0.0259902 -9.86611 132.766 608.566
17 15 0.0207421 -5.18255 336.965 586.657
18 0 0.0228681 -7.50561 188.612 601.525
18 1 0.0384887 -17.2224 1000 458.487
18 2 0.0424946 -18.4338 1000 504.495
18 3 0.0188423 -4.39997 505.743 562.346
18 4 0.0180141 -3.86763 333.141 585
18 5 0.0202403 -5.18221 454.368 569.151
18 6 0.0201422 -3.88737 467.964 571.178
18 7 0.0239939 -8.42226 129.324 609.407
18 8 0.0204237 -4.58369 526.595 565.204
18 9 0.0254885 -9.67792 182.727 600.734
18 10 0.0212361 -5.65225 460.484 569.911
18 11 0.0279035 -10.9754 148.796 606.415
18 12 0.0149176 -0.418642 864.577 533.693
18 13 0.026286 -9.55054 174.991 604.545
18 14 0.0208869 -5.02311 482.246 569.204
18 15 0.0172449 -2.88734 452.454 573.03
19 0 0.0167918 -3.0744 396.404 577.236
19 1 0.0219219 -6.66349 417.108 570.917
19 2 0.014735 -1.7799 293.951 590.259
19 3 0.0581585 -28.9702 1000 509.133
19 4 0.0236599 -7.94353 241.401 593.558
19 5 0.0209996 -5.2014 409.675 577.816
19 6 0.0173972 -3.39894 331.312 586.076
19 7 0.027657 -11.3008 178.916 600.486
19 8 0.018952 -4.5587 211.792 600.001
19 9 0.01899 -4.19431 426.636 574.436
19 10 0.020095 -5.06488 552.949 556.822
19 11 0.0328597 -15.1168 168.847 597.908
19 12 0.0235399 -8.09592 264.401 590.163
19 13 0.0154941 -2.62625 1000 529.643
19 14 0.027772 -11.2772 165.264 603.104
19 15 0.0337404 -12.2811 1000 472.957
20 0 0.0165245 -1.99519 584.425 560.659
20 1 0.0188664 -2.10214 898.515 500.727
20 2 0.0193528 -4.69659 467.883 567.439
20 3 0.028689 -12.1318 187.7 594.911
20 4 0.0197832 -5.1749 482.356 562.871
20 5 0.0231173 -7.06865 319.674 585.617
20 6 0.0318836 -12.1636 1000 476.115
20 7 0.0261508 -7.8498 843.085 489.533
20 8 0.0381005 -16.2428 1000 483.026
20 9 0.0247258 -8.31002 183.194 602.4
20 10 0.0222082 -6.40526 427.964 572.913
20 11 0.0365358 -14.5308 1000 493.648
20 12 0.022083 -4.84044 754.574 508.596
20 13 0.0148813 -0.864664 999.999 513.718
20 14 0.0146817 0.498789 822.171 544.165
20 15 0.0294455 -12.3236 158.456 603.359
21 0 0.0536926 -26.3439 1000 500.037
21 1 0.0221552 -6.23057 462.576 567.245
21 2 0.0343819 -14.4168 1000 436.035
21 3 0.0156005 -2.23144 492.51 565.175
21 4 0.0149354 -0.961577 677.01 549.714
21 5 0.0281757 -12.914 149.27 599.17
21 6 0.0293334 -12.3022 181.94 599.924
21 7 0.05024 -22.9676 1000 513.723
21 8 0.0145078 -1.6455 602.123 551.076
21 9 0.013966 -0.673913 705.845 542.675
21 10 0.0178764 -4.26383 264.985 592.012
21 11 0.0314225 -11.805 1000 453.721
21 12 0.0239906 -8.78865 243.309 591.238
21 13 0.0278964 -11.4782 168.795 601.87
21 14 0.0243786 -8.65463 240.561 594.219
21 15 0.0291037 -9.56984 1000 469.108
22 0 0.0246899 -8.84539 249.846 592.009
22 1 0.0238044 -9.00299 309.049 577.402
22 2 0.0166883 -2.56798 359.561 584.44
22 3 0.0318274 -15.5112 100 607.386
22 4 0.0203677 -5.50482 443.82 568.958
22 5 0.0187988 -3.82278 467.5 571.233
22 6 0.0213669 -6.0114 347.568 582.758
22 7 0.0264294 -10.5197 178.262 600.258
22 8 0.0225702 -8.14515 707.002 512.534
22 9 0.0193651 -4.58918 325.055 586.933
22 10 0.0301983 -10.492 1000 459.131
22 11 0.0361188 -14.8455 1000 453.475
22 12 0.0259659 -9.12551 178.761 603.344
22 13 0.0171644 -3.31698 493.567 565.1
22 14 0.0205468 -6.19091 445.085 564.031
22 15 0.0237938 -8.05992 296.389 586.145
23 0 0.0198632 -5.23574 308.909 586.942
23 1 0.0330003 -15.6691 103.974 608.14
23 2 0.0320462 -11.8405 1000 486.599
23 3 0.0241531 -7.84129 365.126 577.922
23 4 0.017927 -3.18997 522.925 565.534
23 5 0.0264971 -7.5883 933.749 480.681
23 6 0.0213839 -5.50721 627.019 550.056
23 7 0.0287043 -12.1381 134.104 607.1
23 8 0.0248923 -8.97445 228.12 595.876
23 9 0.0157108 -1.93763 320.083 589.547
23 10 0.0166293 -2.83486 445.933 571.176
23 11 0.0151375 -0.722071 555.435 566.433
23 12 0.0205838 -5.49333 332.235 584.722
23 13 0.0247257 -8.77239 138.555 608.768
23 14 0.0160244 -1.69711 435.518 578.158
23 15 0.0194104 -5.29016 202.892 600.845
24 0 0.0175669 -3.81481 411.247 573.553
24 1 0.0214796 -6.09642 379.287 577.52
24 2 0.033803 -14.4352 1000 450.946
24 3 0.0267278 -10.6266 150.352 605.194
24 4 0.0366942 -16.3105 1000 434.589
24 5 0.0221827 -6.51038 432.915 571.432
24 6 0.0185437 -3.64827 591.357 556.225
24 7 0.0231737 -7.94 182.639 602.405
24 8 0.0290061 -11.8131 164.97 600.855
24 9 0.0155142 -3.46786 445.304 560.551
24 10 0.0223161 -7.16493 322.772 582.37
24 11 0.0295178 -12.16 280.386 584.323
24 12 0.0275515 -11.1936 185.281 599.303
24 13 0.0224505 -7.57782 282.936 586.223
24 14 0.0173363 -2.80009 559.741 561.279
24 15 0.020197 -4.67964 422.427 576.838
25 0 0.0268025 -10.7811 173.652 601.448
25 1 0.0249915 -9.06202 215.723 595.539
25 2 0.0223546 -6.86345 405.047 572.572
25 3 0.0305426 -14.8331 100 607.063
25 4 0.0324416 -15.4446 116.296 606.048
25 5 0.0265716 -10.2997 185.825 600.452
25 6 0.0126864 0.00432661 635.335 549.481
25 7 0.0294727 -12.8914 136.234 605.808
25 8 0.0211512 -6.18759 245.407 594.922
25 9 0.0300748 -13.3526 101.85 610.503
25 10 0.0359735 -15.0117 1000 477.188
25 11 0.0202745 -5.55364 228.413 597.518
25 12 0.0210222 -5.50664 577.796 554.913
25 13 0.034793 -14.1912 1000 460.158
25 14 0.0410717 -18.7206 1000 470.079
25 15 0.0136544 0.310223 613.494 560.497
26 0 0.0133804 0.0666732 622.241 555.792
26 1 0.0278489 -12.4321 136.894 603.175
26 2 0.0266348 -10.748 162.782 602.467
26 3 0.0426078 -17.9856 1000 507.697
26 4 0.0166831 -3.45517 375.021 577.116
26 5 0.0231532 -6.99917 349.654 582.631
26 6 0.0308394 -13.4843 122.985 607.957
26 7 0.0228774 -7.15613 204.24 600.351
26 8 0.0178473 -4.16961 364.859 578.562
26 9 0.0231473 -7.37679 342.342 581.589
26 10 0.0131452 -0.648766 910.33 513.458
26 11 0.0444087 -18.6738 1000 520.456
26 12 0.024593 -8.51063 275.002 589.29
26 13 0.0404642 -17.5832 1000 456.356
26 14 0.0274394 -11.0949 100 612.882
26 15 0.0194549 -5.50761 232.179 595.704
27 0 0.0164718 -2.93797 377.685 579.275
27 1 0.0186544 -4.43596 327.544 584.998
27 2 0.0327477 -13.1675 1000 465.654
27 3 0.0386772 -16.4825 1000 483.079
27 4 0.0271112 -11.2435 239.394 588.854
27 5 0.0245704 -8.64008 182.899 602.352
27 6 0.0158851 -2.38396 325.026 587.364
27 7 0.0270994 -11.475 100 611.644
27 8 0.0278615 -11.2925 124.353 608.709
27 9 0.0240179 -8.4766 464.905 558.109
27 10 0.0212237 -5.84049 256.356 595
27 11 0.0273992 -11.1513 100.001 613.221
27 12 0.0306402 -13.6737 112.955 608.992
27 13 0.0314808 -14.3476 108.348 609.368
27 14 0.0137296 -0.774628 832.229 525.445
27 15 0.0213827 -5.89998 318.253 587.769
28 0 0.0290719 -12.6224 197.15 594.881
28 1 0.0299631 -13.1312 232.664 588.163
28 2 0.0292044 -13.6028 185.027 591.18
28 3 0.0304715 -12.9729 245.457 587.442
28 4 0.0239748 -8.20776 362.114 576.22
28 5 0.0131862 -0.274109 945.961 514.272
28 6 0.0172012 -4.25467 458.389 560.741
28 7 0.0289178 -12.2135 100 611.627
28 8 0.0223878 -7.2241 280.688 588.606
28 9 0.0243026 -9.33455 352.149 571.455
28 10 0.0341504 -16.2654 110.251 607.909
28 11 0.0373257 -18.2279 1000 370.392
28 12 0.0237629 -7.98232 342.412 580.649
28 13 0.0452509 -20.1755 1000 501.727
28 14 0.0227869 -6.86234 331.707 584.827
28 15 0.015113 -0.408623 688.774 553.694
29 0 0.0330869 -14.5262 1000 422.022
29 1 0.0194874 -4.603 339.087 585.098
29 2 0.0348814 -17.4115 100 606.609
29 3 0.0228731 -7.38178 244.445 593.728
29 4 0.0145306 -0.143807 588.97 563.878
29 5 0.0185689 -3.92963 594.651 553.612
29 6 0.0169242 -2.8082 565.553 558.715
29 7 0.0275928 -11.4434 100 612.339
29 8 0.0241094 -8.36189 240.236 594.536
29 9 0.0248433 -8.98704 324.966 581.14
29 10 0.0184707 -3.47293 817.255 531.663
29 11 0.026193 -10.0771 146.902 606.452
29 12 0.0372927 -15.6463 1000 449.458
29 13 0.0308251 -13.9197 100 611.202
29 14 0.0212427 -5.79069 326.459 585.786
29 15 0.0223643 -6.99487 282.12 590.139
30 0 0.0191292 -5.6529 411.1 566.168
30 1 0.0162508 -3.25919 477.139 562.834
30 2 0.0193293 -4.31164 626.444 550.672
30 3 0.0282577 -13.8811 185.899 583.208
30 4 0.0163361 -3.10374 723.713 530.179
30 5 0.0337092 -13.2271 1000 474.607
30 6 0.0338776 -17.1368 100 605.365
30 7 0.0213556 -5.52257 490.173 564.756
30 8 0.0321214 -15.4217 100 608.924
30 9 0.0177835 -3.93479 581.735 551.24
30 10 0.0273798 -11.0518 145.657 606.124
30 11 0.0244602 -8.38403 172.871 604.379
30 12 0.0278145 -11.846 100.24 612.119
30 13 0.0289095 -12.3581 139.153 605.742
30 14 0.0256159 -9.52851 204.187 598.406
30 15 0.0276032 -11.2959 114.271 610.693
31 0 0.0212877 -5.6799 510.358 562.992
31 1 0.0283363 -12.1935 160.694 601.502
31 2 0.0288394 -9.37564 1000 464.431
31 3 0.0290515 -12.2187 100 611.69
31 4 0.0231427 -7.4684 307.616 585.476
31 5 0.0356366 -15.6104 1000 455.119
31 6 0.0303857 -12.8176 289.584 580.678
31 7 0.0316387 -13.8334 100 611.618
31 8 0.0306473 -13.9593 100 610.76
31 9 0.0198832 -5.37601 220.896 598.506
31 10 0.0312255 -14.5467 119.255 606.613
31 11 0.0310291 -11.1801 1000 473.097
31 12 0.0169998 -3.36732 678.31 540.064
31 13 0.0184465 -3.78282 652.311 547.66
31 14 0.0236196 -8.38104 250.447 591.125
31 15 0.0186218 -3.52892 495.435 569.311
32 0 0.0306242 -10.5813 1000 471.079
32 1 0.022072 -6.59717 328.26 583.793
32 2 0.0214205 -6.02371 422.593 573.994
32 3 0.0197844 -4.58788 348.477 585.212
32 4 0.0237398 -8.48828 360.523 573.687
32 5 0.0160507 -2.21636 497.045 567.384
32 6 0.0235031 -8.18128 305.44 583.98
32 7 0.020244 -6.14624 147.622 607.319
32 8 0.0165114 -2.42121 448.322 574.067
32 9 0.0254447 -9.96952 191.677 598.201
32 10 0.0301783 -13.0523 130.484 606.902
32 11 0.0203673 -4.56536 377.292 581.509
32 12 0.0189518 -4.5472 287.245 590.533
32 13 0.0233343 -8.744 251.864 587.447
32 14 0.0234348 -7.35937 191.71 603.748
32 15 0.0226211 -7.52935 249.717 592.585
33 0 0.0203351 -5.32754 356.436 582.264
33 1 0.0329438 -12.7398 1000 474.486
33 2 0.0184095 -3.70773 427.095 574.941
33 3 0.0125373 -0.144975 679.01 543.466
33 4 0.0208135 -5.91348 298.705 588.042
33 5 0.0386058 -16.5348 1000 455.031
33 6 0.0266206 -10.8882 104.936 611.663
33 7 0.0304444 -13.3598 200.556 594.457
33 8 0.0365639 -17.2197 1000 410.301
33 9 0.0171267 -3.46024 458.79 567.716
33 10 0.0318563 -14.1542 121.155 608.336
33 11 0.0283299 -11.6281 138.757 607.074
33 12 0.022252 -6.76267 291.94 588.925
33 13 0.0352394 -16.4818 1000 400.663
33 14 0.014539 -0.60958 519.948 568.999
33 15 0.031118 -13.6898 100 611.76
34 0 -9.30212e-06 0.0433853 100.006 -1940.95
34 1 0.040547 -18.7478 1000 450.179
34 2 0.0153606 -2.78833 616.192 542.853
34 3 0.0195129 -5.20739 323.443 584.225
34 4 0.0139175 0.0811007 752.147 545.291
34 5 0.0190239 -5.15422 418.253 569.185
34 6 0.0365603 -14.7381 1000 461.603
34 7 0.0311944 -14.2789 100 610.558
34 8 0.032989 -13.517 1000 443.781
34 9 0.0242739 -8.15759 308.276 585.72
34 10 0.0329105 -13.9314 999.999 448.552
34 11 0.0199673 -5.0009 495.023 563.961
34 12 0.0192075 -4.21262 396.852 579.111
34 13 0.0202572 -5.89751 524.264 554.088
34 14 0.0195843 -5.07937 378.51 577.898
34 15 0.0126947 0.0151851 999.998 506.921
35 0 0.014373 -0.310692 779.098 540.518
35 1 0.0241641 -8.17486 156.578 605.635
35 2 0.0137275 -0.629634 632.707 551.119
35 3 0.0266065 -11.141 145.604 604.081
35 4 0.0331398 -13.1744 1000 465.287
35 5 0.0263288 -10.3433 230.781 592.63
35 6 0.0279422 -12.237 104.371 610.334
35 7 0.0262926 -10.1114 134.956 608.522
35 8 0.0239268 -8.77009 222.944 594.877
35 9 0.0250893 -9.17655 196.372 599.882
35 10 0.021962 -6.78129 304.415 586.157
35 11 0.0283906 -12.2429 167.659 599.795
35 12 0.0211091 -6.96168 567.701 542.949
35 13 0.0242966 -8.93347 323.093 578.732
35 14 0.0189715 -3.34667 346.217 588.728
35 15 0.0189256 -4.28109 364.117 582.332
36 0 0.0310938 -13.7267 100 612.467
36 1 0.0455726 -21.5147 1000 477.765
36 2 0.0169095 -2.2882 492.875 571.097
36 3 0.0286753 -11.4518 225.303 593.976
36 4 0.0175035 -3.73451 243.196 596.663
36 5 0.021541 -5.98295 349.917 583.072
36 6 0.0214806 -6.07243 448.249 569.382
36 7 0.0258888 -9.95277 119.789 610.772
36 8 0.0203216 -5.0987 337.494 585.644
36 9 0.0180687 -3.16428 500.887 568.816
36 10 0.0280758 -11.8468 131.534 606.948
36 11 0.0239364 -7.86178 197.218 601.025
36 12 0.030302 -14.1947 100 609.451
36 13 0.0221941 -6.30716 440.613 571.978
36 14 0.0242832 -8.08137 227.506 597.094
36 15 0.0295481 -11.8215 190.414 598.848
37 0 0.0215331 -6.18352 383.729 577.366
37 1 0.0148576 -1.65726 512.168 563.774
37 2 0.0353601 -14.5923 1000 470.482
37 3 0.021799 -6.51057 586.229 546.302
37 4 0.038172 -16.2675 1000 481.037
37 5 0.021839 -6.32889 208.822 599.899
37 6 0.0223734 -6.69054 312.93 587.035
37 7 0.0142301 -0.227374 770.89 541.895
37 8 0.0241437 -8.8581 268.975 587.198
37 9 0.0273902 -10.9832 227.627 593.345
37 10 0.0197527 -5.91268 377.378 573.335
37 11 0.0175666 -3.77036 514.275 560.104
37 12 0.0168067 -2.4081 489.066 570.578
37 13 0.0206693 -6.46359 327.043 580.54
37 14 0.0315421 -10.8849 1000 468.22
37 15 0.0152922 -0.676552 814.702 537.742
38 0 0.0293612 -12.6297 139.474 605.905
38 1 0.0190321 -5.81946 196.991 598.449
38 2 0.0223596 -7.00733 261.021 592.541
38 3 0.0233208 -7.98406 314.793 582.877
38 4 0.0337006 -16.2788 100 609.248
38 5 0.019516 -4.7604 516.403 561.805
38 6 0.029444 -12.9986 104.429 610.79
38 7 0.0202671 -6.19597 292.56 585.72
38 8 0.0430316 -20.9865 1000 444.877
38 9 0.0299702 -13.4328 109.612 609.804
38 10 0.0199259 -4.02882 423.054 577.982
38 11 0.0254197 -9.25668 279.391 588.04
38 12 0.0307984 -13.794 100.752 611.385
38 13 0.0397809 -17.2025 1000 482.039
38 14 0.0173949 -3.43266 459.859 568.627
38 15 0.0550891 -24.8592 1000 494.475
39 0 0.0156716 -2.8701 497.412 559.761
39 1 0.0400939 -17.3737 1000 481.448
39 2 0.0464082 -24.1393 1000 410.086
39 3 0.0219158 -6.37956 314.754 586.65
39 4 0.0264311 -10.361 149.938 606.018
39 5 0.0197091 -5.02439 404.631 575.259
39 6 0.030905 -13.6909 100 611.801
39 7 0.0224679 -6.88039 225.33 597.627
39 8 0.0215272 -6.41248 379.535 576.364
39 9 0.0228709 -7.29672 478.759 562.299
39 10 0.0319085 -14.0145 131.675 607.294
39 11 0.0117516 0.902034 646.043 551.645
39 12 0.0164656 -2.88793 369.567 580.491
39 13 0.0439693 -20.9814 1000 465.054
39 14 0.0202538 -4.57378 465.295 572.327
39 15 -9.30212e-06 0.0433853 100.006 -1940.95
40 0 0.0309775 -15.0806 100 607.309
40 1 0.0142364 -2.06335 649.956 538.979
40 2 0.0211727 -6.42201 260.642 591.885
40 3 0.0326043 -15.7883 100 608.152
40 4 0.0223763 -7.39624 289.254 586.035
40 5 0.0238483 -8.26182 304.622 584.639
40 6 0.0189826 -4.6937 370.901 578.918
40 7 0.0182777 -3.65437 420.732 576.505
40 8 0.0133853 0.792022 1000 520.537
40 9 0.0242136 -8.70459 281.005 586.727
40 10 0.0133061 -0.996921 408.932 574.98
40 11 0.0328214 -12.6479 1000 474.215
40 12 0.0187585 -6.2407 342.855 570.062
40 13 0.0262734 -10.0868 159.466 605.194
40 14 0.0275885 -10.8616 131.698 607.901
40 15 0.0310153 -13.4912 135.016 606.904
41 0 0.0144428 -1.32932 578.48 555.484
41 1 0.0240738 -8.1651 174.716 603.033
41 2 0.0247529 -8.24973 236.777 595.246
41 3 0.0139821 -0.256944 986.201 516.071
41 4 0.027901 -11.622 100 612.501
41 5 0.0178295 -3.07296 521.965 566.261
41 6 0.0129259 -0.464752 390.071 579.369
41 7 0.0281461 -10.6346 200.074 599.471
41 8 0.0200205 -4.02937 539.381 565.566
41 9 0.0206409 -5.30915 434.769 573.536
41 10 0.0291875 -9.81951 999.996 459.908
41 11 0.0300148 -11.9447 223.688 593.636
41 12 0.0273345 -10.8054 215.592 595.799
41 13 0.037042 -15.7149 1000 460.773
41 14 0.0246545 -8.50633 331.129 582.318
41 15 0.0386755 -18.5064 1000 406.931
42 0 0.018469 -4.72385 237.814 595.741
42 1 0.0127563 1.2628 1000 525.165
42 2 0.0196972 -5.16553 147.643 608.104
42 3 0.0200296 -5.31099 463.001 566.529
42 4 0.0223568 -6.57668 295.286 590.305
42 5 0.0191553 -5.43742 292.423 586.281
42 6 0.0249054 -8.51123 228.117 596.309
42 7 0.0283339 -12.2991 135.385 605.554
42 8 0.024581 -8.97299 252.143 591.233
42 9 0.0293658 -12.6888 124.225 607.568
42 10 0.0239982 -8.0994 251.316 593.489
42 11 0.0209551 -6.20362 746.333 522.291
42 12 0.0189195 -3.94132 376.62 582.541
42 13 0.0219552 -5.97359 333.219 586.428
42 14 0.0282853 -11.7747 183.128 599.288
42 15 0.029857 -13.1851 109.455 610.208
43 0 0.0196354 -5.01212 289.755 590.583
43 1 0.0258438 -10.0861 223.793 593.405
43 2 0.0301408 -13.0875 146.37 602.96
43 3 0.0172572 -4.2508 384.61 572.868
43 4 0.0335514 -16.2525 100 608.426
43 5 0.0311082 -14.6899 100 609.154
43 6 0.0326418 -15.7439 100 608.901
43 7 0.0217926 -6.05221 553.211 557.166
43 8 0.0316411 -13.8308 189.698 596.691
43 9 0.024985 -9.07517 317.463 581.224
43 10 0.0310436 -12.6557 433.18 557.013
43 11 0.0389454 -17.6936 1000 454.995
43 12 0.0263356 -7.92846 683.576 506.271
43 13 0.0211028 -5.48845 423.032 574.758
43 14 0.0268941 -10.4592 238.062 592.264
43 15 0.0161362 -1.01052 640.235 559.242
44 0 0.036257 -14.5164 1000 464.718
44 1 0.0178783 -4.58302 234.461 595.108
44 2 0.0282538 -12.0373 219.889 590.91
44 3 0.0343212 -14.1325 1000 463.683
44 4 -9.30212e-06 0.0433853 100.006 -1940.95
44 5 0.0194288 -4.11337 647.219 550.055
44 6 0.0240467 -8.10888 295.304 587.456
44 7 0.0248354 -8.77998 227.463 596.683
44 8 0.0270628 -11.4351 186.423 596.848
44 9 0.0244426 -6.58917 717.171 508.424
44 10 0.0332666 -12.0455 1000 467.37
44 11 0.0358814 -15.8286 999.999 447.816
44 12 0.0225899 -7.61421 481.408 557.41
44 13 0.0154379 -1.48341 525.376 565.317
44 14 0.0193197 -5.01098 497.779 560.478
44 15 0.0219738 -5.62739 431.979 575.905
45 0 0.0241299 -8.02893 234.031 595.423
45 1 0.0323532 -12.1815 1000 476.662
45 2 0.0284483 -11.7189 205.985 596.215
45 3 0.0250756 -9.28668 198.005 598.414
45 4 0.0163948 -2.4252 203.727 602.672
45 5 0.0244585 -8.70953 277.476 588.444
45 6 0.0250315 -8.81315 287.105 587.215
45 7 0.0163352 -2.69513 521.511 562.357
45 8 0.0160017 -3.37089 493.618 557.449
45 9 0.0248102 -8.99192 220.079 596.485
45 10 0.039372 -15.6945 1000 470.228
45 11 0.0251571 -9.39143 239.943 592.52
45 12 0.0129082 0.520987 1000 513.754
45 13 0.0221558 -5.80826 497.162 567.872
45 14 0.0132226 2.12841 956.771 536.899
45 15 0.0173527 -2.67101 515.042 567.433
46 0 0.0189807 -4.80437 429.284 571.094
46 1 0.0135052 0.685017 936.831 524.061
46 2 0.0188314 -4.8085 386.31 575.756
46 3 0.0295059 -12.5763 207.973 594.441
46 4 0.035519 -15.0226 1000 437.566
46 5 0.0195855 -4.70399 406.305 576.412
46 6 0.0322354 -15.5551 100 608.779
46 7 0.0211973 -4.94068 606.556 556.434
46 8 0.0234297 -7.0117 398.921 578.163
46 9 0.0245418 -8.67389 298.066 585.739
46 10 -9.30212e-06 0.0433853 100.006 -1940.95
46 11 0.0209907 -5.64422 506.51 562.342
46 12 0.020362 -6.19652 407.087 569.263
46 13 0.0309118 -13.7364 121.45 608.522
46 14 0.029538 -12.2244 159.105 603.673
46 15 0.0473773 -23.6433 1000 449.622
47 0 0.0200444 -5.01292 764.619 528.667
47 1 0.0136834 -0.114532 546.744 565.249
47 2 0.0215977 -6.23647 460.495 567.88
47 3 0.0151485 -0.152235 599.447 563.459
47 4 0.0229829 -7.35231 277.131 590.851
47 5 0.0190459 -4.15409 347.791 584.711
47 6 0.01702 -3.69229 249.62 594.679
47 7 0.0203387 -2.53286 1000 495.522
47 8 0.0232111 -7.52261 315.807 584.821
47 9 0.0202805 -5.28356 586.781 550.859
47 10 0.0188594 -4.68684 516.558 558.07
47 11 0.0188651 -3.89169 627.003 551.759
47 12 0.0238508 -7.93299 354.149 579.391
47 13 0.0370485 -15.4436 1000 475.902
47 14 0.0134817 1.57284 999.999 528.916
47 15 0.0184193 -4.13827 395.331 576.965
48 0 0.0188205 -4.29422 343.8 583.845
48 1 0.0201266 -6.44641 330.275 577.547
48 2 0.0150631 -1.74587 712.734 538.133
48 3 0.0166673 -2.04554 723.771 544.295
48 4 0.0173046 -3.514 578.081 552.461
48 5 0.0128411 0.857997 1000 518.982
48 6 0.0243292 -8.47134 239.595 594.317
48 7 0.0270393 -10.9247 137.694 607.132
48 8 0.0386252 -17.7218 1000 440.457
48 9 0.0285558 -13.0675 163.608 596.872
48 10 0.0146585 -1.08436 888.148 521.195
48 11 0.0199287 -4.9147 603.29 550.658
48 12 0.0374842 -14.5483 1000 505.671
48 13 0.0177597 -3.36478 522.66 563.103
48 14 0.0256399 -8.38439 272.357 593.17
48 15 0.0301492 -13.0355 139.247 605.705
49 0 0.0192192 -5.83354 273.583 587.1
49 1 0.0187935 -4.6428 365.844 579.532
49 2 0.0270292 -10.6417 142.282 605.8
49 3 0.0359758 -15.2723 1000 465.558
49 4 0.0291794 -12.6888 136.362 605.721
49 5 0.0284218 -12.6798 100 610.59
49 6 0.0154873 -2.50654 549.814 555.579
49 7 0.0221784 -6.74065 404.431 573.332
49 8 0.0199321 -4.37361 322.551 588.31
49 9 0.0274597 -11.5247 136.912 605.726
49 10 0.0162373 -1.26659 672.691 555.243
49 11 0.0194203 -3.96481 736.305 539.996
49 12 0.0565682 -25.0069 1000 504.214
49 13 0.0358103 -14.8677 1000 475.338
49 14 0.0209226 -4.55109 541.936 565.317
49 15 0.0351961 -13.4626 1000 465.358
50 0 0.017476 -4.03016 304.34 586.847
50 1 0.0224936 -7.70735 267.98 588.23
50 2 0.0245352 -8.74756 382.338 572.684
50 3 0.0253327 -9.29426 111.105 611.303
50 4 0.0157188 -1.16073 645.174 556.83
50 5 0.01991 -5.33169 487.193 562.657
50 6 0.0193149 -4.3814 468.073 569.904
50 7 0.0394474 -17.9732 1000 455.815
50 8 0.0293728 -12.5127 120.066 609.33
50 9 0.0249869 -8.55344 354.933 580.046
50 10 0.0189073 -3.90172 397.649 579.924
50 11 0.0209513 -5.74774 408.601 574.821
50 12 0.0178206 -3.88828 448.814 568.996
50 13 0.0169385 -3.09551 999.09 502.767
50 14 0.0211745 -4.95267 650.948 550.447
50 15 0.0197337 -4.0854 631.219 553.389
51 0 0.0182455 -4.5514 226.55 597.418
51 1 0.0301181 -13.7006 113.455 608.361
51 2 0.0311804 -14.3261 123.039 606.326
51 3 0.0318515 -14.7542 121.1 606.918
51 4 0.0233406 -7.39254 390.9 575.778
51 5 0.0181764 -4.5939 377.782 575.429
51 6 0.0347693 -15.1278 1000 452.913
51 7 0.0283186 -11.9406 143.247 605.248
51 8 0.0444567 -21.0817 1000 466.202
51 9 0.0185524 -4.23277 329.816 585.362
51 10 0.0274034 -11.0116 249.444 590.025
51 11 0.0233753 -7.61605 305.441 586.739
51 12 0.0302984 -13.4897 200.11 593.721
51 13 0.0230774 -7.68001 462.291 562.494
51 14 0.0166707 -1.70544 532.175 569.178
51 15 0.0336148 -13.3716 1000 472.927
52 0 0.0204471 -5.62494 264.846 593.047
52 1 0.0347314 -14.3496 1000 463.597
52 2 0.0288641 -12.5805 217.54 591.063
52 3 0.0304894 -13.6995 119.446 606.878
52 4 0.0240582 -8.827 254.115 590.018
52 5 0.0279901 -11.542 110.71 610.32
52 6 0.0181427 -3.49245 556.281 560.015
52 7 0.0245773 -8.47751 187.701 602.19
52 8 0.0286571 -12.09 259.603 585.973
52 9 0.0267996 -10.4453 229.665 593.895
52 10 0.0216167 -5.501 496.767 567.343
52 11 0.019274 -5.7533 461.577 559.07
52 12 0.0209189 -4.07321 645.517 556.937
52 13 0.0296333 -11.8915 219.131 595.773
52 14 0.0189976 -2.8584 641.337 558.672
52 15 0.0175182 -3.18159 517.495 564.244
53 0 0.0221155 -7.35675 296.35 584.208
53 1 0.0405128 -16.9796 1000 502.76
53 2 0.0210197 -5.2695 446.111 573.671
53 3 0.0299823 -10.192 1000 465.64
53 4 0.0275705 -8.90016 1000 465.28
53 5 0.0273281 -11.2092 228.501 591.824
53 6 0.0212399 -4.79044 519.475 566.408
53 7 0.0239083 -7.67357 204.324 599.687
53 8 0.0357449 -14.8506 1000 471.784
53 9 0.0242672 -7.33823 348.481 584.85
53 10 0.0124253 0.59083 1000 513.049
53 11 0.0223032 -5.52745 470.674 573.623
53 12 0.021796 -6.5551 419.246 570.999
53 13 0.0274023 -9.88171 230.79 596.675
53 14 0.0284935 -11.4292 297.72 583.568
53 15 0.024015 -7.33451 545.688 558.499
54 0 0.0490893 -21.8949 1000 520.044
54 1 0.0181214 -5.136 392.351 569.025
54 2 0.034517 -13.8053 1000 475.455
54 3 0.0205318 -5.10197 414.843 575.601
54 4 0.0223152 -6.4359 372.775 580.678
54 5 0.0323361 -10.6509 1000 441.606
54 6 0.0392184 -19.6112 1000 388.692
54 7 0.019716 -4.33936 411.975 578.798
54 8 0.0205872 -4.48351 520.411 565.719
54 9 0.0270318 -10.4911 316.761 581.168
54 10 0.0314921 -12.5924 389.936 570.278
54 11 0.0151538 -0.558363 1000 520.417
54 12 0.0201383 -3.79008 600.933 561.115
54 13 0.015922 -1.7677 607.526 557.134
54 14 0.0290327 -11.6544 289.566 585.303
54 15 0.0338938 -12.9181 1000 465.871
55 0 0.0231134 -6.92115 358.051 581.523
55 1 0.0229876 -7.2842 400.643 573.944
55 2 0.026562 -9.91952 257.313 591.935
55 3 0.0266206 -10.9108 282.889 581.479
55 4 0.0187488 -4.35174 326.268 586.54
55 5 0.0199836 -5.29785 444.919 569.179
55 6 0.0187982 -3.4357 521.499 566.485
55 7 0.0170061 -2.31819 588.806 559.809
55 8 0.0368103 -15.4326 1000 487.489
55 9 0.0227893 -6.29248 631.424 549.825
55 10 0.017593 -3.58287 740.316 532.919
55 11 0.0280455 -12.1415 204.407 593.028
55 12 0.020601 -4.57563 595.627 557.311
55 13 0.0192694 -3.11832 364.353 585.908
55 14 0.0271218 -10.6584 192.652 599.548
55 15 0.0316366 -14.7798 134.637 603.656
56 0 0.0262829 -11.2682 247.798 583.578
56 1 0.0277834 -11.6686 100 611.095
56 2 0.0132051 -1.05252 1000 522.253
56 3 0.0260443 -9.33334 206.834 598.135
56 4 0.0223464 -6.16814 473.737 569.901
56 5 0.0208594 -5.33545 491.557 566.677
56 6 0.0219711 -6.22643 347.491 584.089
56 7 0.0149059 -0.0395735 943.965 527.982
56 8 0.0283776 -11.3552 163.243 604.393
56 9 0.0198881 -4.7094 439.952 572.913
56 10 0.0332517 -15.2822 322.02 569.979
56 11 0.0343225 -13.2896 1000 488.112
56 12 0.022607 -6.06073 427.615 575.701
56 13 0.0204834 -5.13284 733.409 536.89
56 14 0.0157898 -0.696271 985.167 523.937
56 15 0.0135093 0.190224 648.202 554.274
57 0 0.0138995 -1.37995 1000 502.131
57 1 0.0300925 -13.4585 163.105 599.893
57 2 0.0289136 -11.8628 191.447 599.129
57 3 0.0220797 -6.23077 437.758 572.36
57 4 0.0198587 -4.11433 767.356 538.128
57 5 0.0212601 -5.94309 402.6 574.705
57 6 0.0270458 -10.8799 252.56 589.004
57 7 -9.30212e-06 0.0433853 100.006 -1940.95
57 8 0.0205624 -5.30461 302.725 589.461
57 9 0.0197121 -3.57553 628.608 557.405
57 10 0.0297962 -12.404 158.995 601.571
57 11 0.0300099 -12.2885 288.348 584.185
57 12 0.0264722 -7.37983 1000 479.894
57 13 0.0191186 -3.93409 816.99 529.708
57 14 0.0205471 -4.13398 529.756 567.5
57 15 0.0263387 -9.88708 223.185 595.949
58 0 0.0339435 -13.33 1000 479.594
58 1 0.0326142 -14.678 166.558 600.238
58 3 0.0220424 -6.06838 717.973 537.696
58 4 0.0221061 -6.83069 381.157 576.114
58 5 0.025199 -10.2493 392.517 561.502
58 6 0.0221226 -5.81257 446.328 573.502
58 7 0.0300094 -14.6995 181.964 587.034
58 8 0.0208013 -5.90004 672.883 538.116
58 9 0.0292911 -10.2743 449.616 565.438
58 10 0.0146878 -2.62268 593.409 573.408
58 11 0.03315 -16.2999 102.646 607.521
58 12 0.0277499 -9.94311 283.79 587.348
58 13 0.0201267 -4.34319 438.194 575.525
58 14 0.0269913 -9.60426 370.4 577.748
58 15 0.0270799 -10.8142 290.574 583.079
59 0 0.0397505 -18.2694 1000 462.424
59 1 0.020092 -5.25672 739.33 531.201
59 2 0.0163953 -2.61166 814.539 527.068
59 3 0.0200648 -4.30409 492.046 569.375
59 4 0.01151 0.719614 682.402 545.29
59 5 0.0229597 -7.07956 485.652 564.124
59 6 0.0163234 -1.46926 815.247 538.204
59 7 0.028164 -11.6649 285.98 582.075
59 8 0.0184955 -2.32943 766.037 546.622
59 9 0.0306796 -12.7386 180.226 601.513
59 10 0.0171193 -2.80702 368.056 583.306
59 11 0.0513607 -25.274 1000 490.114
59 12 0.0263279 -9.37441 305.512 586.887
59 13 0.0139343 0.603302 1000 524.391
59 14 0.0217983 -5.34489 385.879 582.059
59 15 0.0337325 -11.007 1000 449.566
60 0 0.0366301 -13.1234 1000 480.785
60 1 0.0132394 0.424795 868.373 530.939
60 2 0.0166616 -2.28562 585.696 558.604
60 3 0.0155381 -1.50305 909.467 521.704
60 4 0.0353366 -16.1676 1000 424.86
60 5 0.0207995 -5.76992 484.815 563.737
60 6 0.032447 -12.4553 1000 482.123
60 7 0.0283131 -10.9151 198.744 599.141
60 8 0.0261478 -8.95502 391.8 576.338
60 9 0.0318795 -14.4538 132.873 606.015
60 10 0.0339644 -13.5734 1000 475.177
60 11 0.0200752 -4.3149 579.169 559.768
60 12 0.0327879 -11.9373 1000 497.158
60 13 0.032276 -12.3143 1000 482.415
60 14 0.029835 -11.6214 357.978 578.254
60 15 0.0203274 -3.80688 669.513 554.516
61 0 0.0153463 -1.4199 1000 514.782
61 1 0.0176587 -3.60703 676.552 540.663
61 2 0.0211967 -5.16399 430.169 576.48
61 3 0.0295703 -13.2446 164.337 598.932
61 4 0.022856 -7.12558 252.789 594.729
61 5 0.0292853 -12.9672 144.532 603.485
61 6 0.0211605 -5.73286 425.091 573.736
61 7 0.0149547 -0.666094 446.693 577.831
61 8 0.0178359 -3.21585 609.383 554.657
61 9 0.0247043 -7.7546 263.475 592.984
61 10 0.0159943 -1.71921 630.96 554.315
61 11 0.0175296 -3.01453 540.797 562.394
61 12 0.016895 -1.36895 676.845 556.002
61 13 0.0248029 -8.34296 343.875 581.91
61 14 0.0300411 -12.0127 335.311 578.845
61 15 0.0330156 -12.4858 1000 478.64
62 0 0.026031 -9.82572 201.406 599.196
62 1 0.0328761 -12.968 1000 466.981
62 2 0.0117453 1.65168 1000 520.477
62 3 0.0168315 -2.78065 487.473 568.139
62 4 0.0180248 -3.03671 663.463 551.235
62 5 0.0226273 -7.07662 416.068 572.092
62 6 0.0213309 -5.93938 389.231 577.146
62 7 0.0182386 -2.88801 315.041 591.537
62 8 0.0202154 -4.47232 405.347 579.031
62 9 0.019785 -4.47771 437.673 574.534
62 10 0.0227601 -6.36426 482.324 568.242
62 11 0.0171439 -2.04517 703.967 548.983
62 12 0.014916 -0.554811 694.168 550.558
62 13 0.0126117 0.308079 1000 516.728
62 14 0.0263865 -10.2766 230.499 593.705
62 15 0.0275152 -10.1779 309.41 585.437
63 0 0.0252835 -8.46917 250.059 594.397
63 1 0.0219387 -6.0882 746.135 533.113
63 2 0.0255428 -9.43835 219.171 596.417
63 3 0.0160953 -1.50568 760.29 542.759
63 4 0.0328266 -14.5791 172.368 600.181
63 5 0.0191085 -4.2882 816.876 526.258
63 6 0.0120305 0.631817 999.999 510.757
63 7 0.0267803 -9.70874 282.958 589.929
63 8 0.0194222 -3.69241 448.437 575.965
63 9 0.0129824 1.23337 856.008 538.26
63 10 0.0305017 -10.5965 1000 495.86
63 11 0.0255084 -8.40514 322.583 586.319
63 12 0.0369044 -15.9248 1000 467.577
63 13 0.018124 -2.29974 647.754 558.167
63 14 0.0182888 -2.42543 628.053 560.249
63 15 0.0310938 -12.5105 309.876 583.665
