[5] setRegister analog_out_ctrl 0x4 0

[6] delay 1000

[7] setRegister dac_vthr 0 0

[8] delay 1000

[9] readAnalogOut 0
|18:15:20.043|    (INFO) [H2M] Reading analog out, ADC = 0.009

[10] setRegister dac_vthr 1 0

[11] delay 1000

[12] readAnalogOut 0
|18:15:21.044|    (INFO) [H2M] Reading analog out, ADC = 0.012

[13] setRegister dac_vthr 2 0

[14] delay 1000

[15] readAnalogOut 0
|18:15:22.045|    (INFO) [H2M] Reading analog out, ADC = 0.016

[16] setRegister dac_vthr 3 0

[17] delay 1000

[18] readAnalogOut 0
|18:15:23.046|    (INFO) [H2M] Reading analog out, ADC = 0.019

[19] setRegister dac_vthr 4 0

[20] delay 1000

[21] readAnalogOut 0
|18:15:24.046|    (INFO) [H2M] Reading analog out, ADC = 0.024

[22] setRegister dac_vthr 5 0

[23] delay 1000

[24] readAnalogOut 0
|18:15:25.047|    (INFO) [H2M] Reading analog out, ADC = 0.028

[25] setRegister dac_vthr 6 0

[26] delay 1000

[27] readAnalogOut 0
|18:15:26.048|    (INFO) [H2M] Reading analog out, ADC = 0.031

[28] setRegister dac_vthr 7 0

[29] delay 1000

[30] readAnalogOut 0
|18:15:27.049|    (INFO) [H2M] Reading analog out, ADC = 0.035

[31] setRegister dac_vthr 8 0

[32] delay 1000

[33] readAnalogOut 0
|18:15:28.050|    (INFO) [H2M] Reading analog out, ADC = 0.038

[34] setRegister dac_vthr 9 0

[35] delay 1000

[36] readAnalogOut 0
|18:15:29.050|    (INFO) [H2M] Reading analog out, ADC = 0.043

[37] setRegister dac_vthr 10 0

[38] delay 1000

[39] readAnalogOut 0
|18:15:30.051|    (INFO) [H2M] Reading analog out, ADC = 0.047

[40] setRegister dac_vthr 11 0

[41] delay 1000

[42] readAnalogOut 0
|18:15:31.052|    (INFO) [H2M] Reading analog out, ADC = 0.051

[43] setRegister dac_vthr 12 0

[44] delay 1000

[45] readAnalogOut 0
|18:15:32.053|    (INFO) [H2M] Reading analog out, ADC = 0.055

[46] setRegister dac_vthr 13 0

[47] delay 1000

[48] readAnalogOut 0
|18:15:33.054|    (INFO) [H2M] Reading analog out, ADC = 0.059

[49] setRegister dac_vthr 14 0

[50] delay 1000

[51] readAnalogOut 0
|18:15:34.055|    (INFO) [H2M] Reading analog out, ADC = 0.064

[52] setRegister dac_vthr 15 0

[53] delay 1000

[54] readAnalogOut 0
|18:15:35.055|    (INFO) [H2M] Reading analog out, ADC = 0.067

[55] setRegister dac_vthr 16 0

[56] delay 1000

[57] readAnalogOut 0
|18:15:36.056|    (INFO) [H2M] Reading analog out, ADC = 0.071

[58] setRegister dac_vthr 17 0

[59] delay 1000

[60] readAnalogOut 0
|18:15:37.057|    (INFO) [H2M] Reading analog out, ADC = 0.074

[61] setRegister dac_vthr 18 0

[62] delay 1000

[63] readAnalogOut 0
|18:15:38.058|    (INFO) [H2M] Reading analog out, ADC = 0.079

[64] setRegister dac_vthr 19 0

[65] delay 1000

[66] readAnalogOut 0
|18:15:39.059|    (INFO) [H2M] Reading analog out, ADC = 0.083

[67] setRegister dac_vthr 20 0

[68] delay 1000

[69] readAnalogOut 0
|18:15:40.059|    (INFO) [H2M] Reading analog out, ADC = 0.087

[70] setRegister dac_vthr 21 0

[71] delay 1000

[72] readAnalogOut 0
|18:15:41.060|    (INFO) [H2M] Reading analog out, ADC = 0.091

[73] setRegister dac_vthr 22 0

[74] delay 1000

[75] readAnalogOut 0
|18:15:42.061|    (INFO) [H2M] Reading analog out, ADC = 0.095

[76] setRegister dac_vthr 23 0

[77] delay 1000

[78] readAnalogOut 0
|18:15:43.062|    (INFO) [H2M] Reading analog out, ADC = 0.1

[79] setRegister dac_vthr 24 0

[80] delay 1000

[81] readAnalogOut 0
|18:15:44.063|    (INFO) [H2M] Reading analog out, ADC = 0.103

[82] setRegister dac_vthr 25 0

[83] delay 1000

[84] readAnalogOut 0
|18:15:45.064|    (INFO) [H2M] Reading analog out, ADC = 0.107

[85] setRegister dac_vthr 26 0

[86] delay 1000

[87] readAnalogOut 0
|18:15:46.064|    (INFO) [H2M] Reading analog out, ADC = 0.111

[88] setRegister dac_vthr 27 0

[89] delay 1000

[90] readAnalogOut 0
|18:15:47.065|    (INFO) [H2M] Reading analog out, ADC = 0.115

[91] setRegister dac_vthr 28 0

[92] delay 1000

[93] readAnalogOut 0
|18:15:48.066|    (INFO) [H2M] Reading analog out, ADC = 0.119

[94] setRegister dac_vthr 29 0

[95] delay 1000

[96] readAnalogOut 0
|18:15:49.067|    (INFO) [H2M] Reading analog out, ADC = 0.124

[97] setRegister dac_vthr 30 0

[98] delay 1000

[99] readAnalogOut 0
|18:15:50.068|    (INFO) [H2M] Reading analog out, ADC = 0.127

[100] setRegister dac_vthr 31 0

[101] delay 1000

[102] readAnalogOut 0
|18:15:51.068|    (INFO) [H2M] Reading analog out, ADC = 0.131

[103] setRegister dac_vthr 32 0

[104] delay 1000

[105] readAnalogOut 0
|18:15:52.069|    (INFO) [H2M] Reading analog out, ADC = 0.135

[106] setRegister dac_vthr 33 0

[107] delay 1000

[108] readAnalogOut 0
|18:15:53.070|    (INFO) [H2M] Reading analog out, ADC = 0.14

[109] setRegister dac_vthr 34 0

[110] delay 1000

[111] readAnalogOut 0
|18:15:54.071|    (INFO) [H2M] Reading analog out, ADC = 0.143

[112] setRegister dac_vthr 35 0

[113] delay 1000

[114] readAnalogOut 0
|18:15:55.072|    (INFO) [H2M] Reading analog out, ADC = 0.148

[115] setRegister dac_vthr 36 0

[116] delay 1000

[117] readAnalogOut 0
|18:15:56.072|    (INFO) [H2M] Reading analog out, ADC = 0.151

[118] setRegister dac_vthr 37 0

[119] delay 1000

[120] readAnalogOut 0
|18:15:57.073|    (INFO) [H2M] Reading analog out, ADC = 0.155

[121] setRegister dac_vthr 38 0

[122] delay 1000

[123] readAnalogOut 0
|18:15:58.074|    (INFO) [H2M] Reading analog out, ADC = 0.16

[124] setRegister dac_vthr 39 0

[125] delay 1000

[126] readAnalogOut 0
|18:15:59.075|    (INFO) [H2M] Reading analog out, ADC = 0.163

[127] setRegister dac_vthr 40 0

[128] delay 1000

[129] readAnalogOut 0
|18:16:00.076|    (INFO) [H2M] Reading analog out, ADC = 0.167

[130] setRegister dac_vthr 41 0

[131] delay 1000

[132] readAnalogOut 0
|18:16:01.076|    (INFO) [H2M] Reading analog out, ADC = 0.171

[133] setRegister dac_vthr 42 0

[134] delay 1000

[135] readAnalogOut 0
|18:16:02.077|    (INFO) [H2M] Reading analog out, ADC = 0.175

[136] setRegister dac_vthr 43 0

[137] delay 1000

[138] readAnalogOut 0
|18:16:03.078|    (INFO) [H2M] Reading analog out, ADC = 0.179

[139] setRegister dac_vthr 44 0

[140] delay 1000

[141] readAnalogOut 0
|18:16:04.079|    (INFO) [H2M] Reading analog out, ADC = 0.183

[142] setRegister dac_vthr 45 0

[143] delay 1000

[144] readAnalogOut 0
|18:16:05.080|    (INFO) [H2M] Reading analog out, ADC = 0.187

[145] setRegister dac_vthr 46 0

[146] delay 1000

[147] readAnalogOut 0
|18:16:06.080|    (INFO) [H2M] Reading analog out, ADC = 0.191

[148] setRegister dac_vthr 47 0

[149] delay 1000

[150] readAnalogOut 0
|18:16:07.081|    (INFO) [H2M] Reading analog out, ADC = 0.195

[151] setRegister dac_vthr 48 0

[152] delay 1000

[153] readAnalogOut 0
|18:16:08.082|    (INFO) [H2M] Reading analog out, ADC = 0.199

[154] setRegister dac_vthr 49 0

[155] delay 1000

[156] readAnalogOut 0
|18:16:09.083|    (INFO) [H2M] Reading analog out, ADC = 0.203

[157] setRegister dac_vthr 50 0

[158] delay 1000

[159] readAnalogOut 0
|18:16:10.084|    (INFO) [H2M] Reading analog out, ADC = 0.207

[160] setRegister dac_vthr 51 0

[161] delay 1000

[162] readAnalogOut 0
|18:16:11.085|    (INFO) [H2M] Reading analog out, ADC = 0.211

[163] setRegister dac_vthr 52 0

[164] delay 1000

[165] readAnalogOut 0
|18:16:12.085|    (INFO) [H2M] Reading analog out, ADC = 0.216

[166] setRegister dac_vthr 53 0

[167] delay 1000

[168] readAnalogOut 0
|18:16:13.086|    (INFO) [H2M] Reading analog out, ADC = 0.22

[169] setRegister dac_vthr 54 0

[170] delay 1000

[171] readAnalogOut 0
|18:16:14.087|    (INFO) [H2M] Reading analog out, ADC = 0.223

[172] setRegister dac_vthr 55 0

[173] delay 1000

[174] readAnalogOut 0
|18:16:15.088|    (INFO) [H2M] Reading analog out, ADC = 0.227

[175] setRegister dac_vthr 56 0

[176] delay 1000

[177] readAnalogOut 0
|18:16:16.089|    (INFO) [H2M] Reading analog out, ADC = 0.231

[178] setRegister dac_vthr 57 0

[179] delay 1000

[180] readAnalogOut 0
|18:16:17.090|    (INFO) [H2M] Reading analog out, ADC = 0.235

[181] setRegister dac_vthr 58 0

[182] delay 1000

[183] readAnalogOut 0
|18:16:18.090|    (INFO) [H2M] Reading analog out, ADC = 0.24

[184] setRegister dac_vthr 59 0

[185] delay 1000

[186] readAnalogOut 0
|18:16:19.091|    (INFO) [H2M] Reading analog out, ADC = 0.244

[187] setRegister dac_vthr 60 0

[188] delay 1000

[189] readAnalogOut 0
|18:16:20.092|    (INFO) [H2M] Reading analog out, ADC = 0.248

[190] setRegister dac_vthr 61 0

[191] delay 1000

[192] readAnalogOut 0
|18:16:21.093|    (INFO) [H2M] Reading analog out, ADC = 0.251

[193] setRegister dac_vthr 62 0

[194] delay 1000

[195] readAnalogOut 0
|18:16:22.094|    (INFO) [H2M] Reading analog out, ADC = 0.256

[196] setRegister dac_vthr 63 0

[197] delay 1000

[198] readAnalogOut 0
|18:16:23.095|    (INFO) [H2M] Reading analog out, ADC = 0.259

[199] setRegister dac_vthr 64 0

[200] delay 1000

[201] readAnalogOut 0
|18:16:24.095|    (INFO) [H2M] Reading analog out, ADC = 0.263

[202] setRegister dac_vthr 65 0

[203] delay 1000

[204] readAnalogOut 0
|18:16:25.096|    (INFO) [H2M] Reading analog out, ADC = 0.267

[205] setRegister dac_vthr 66 0

[206] delay 1000

[207] readAnalogOut 0
|18:16:26.097|    (INFO) [H2M] Reading analog out, ADC = 0.271

[208] setRegister dac_vthr 67 0

[209] delay 1000

[210] readAnalogOut 0
|18:16:27.098|    (INFO) [H2M] Reading analog out, ADC = 0.275

[211] setRegister dac_vthr 68 0

[212] delay 1000

[213] readAnalogOut 0
|18:16:28.099|    (INFO) [H2M] Reading analog out, ADC = 0.279

[214] setRegister dac_vthr 69 0

[215] delay 1000

[216] readAnalogOut 0
|18:16:29.099|    (INFO) [H2M] Reading analog out, ADC = 0.283

[217] setRegister dac_vthr 70 0

[218] delay 1000

[219] readAnalogOut 0
|18:16:30.100|    (INFO) [H2M] Reading analog out, ADC = 0.287

[220] setRegister dac_vthr 71 0

[221] delay 1000

[222] readAnalogOut 0
|18:16:31.101|    (INFO) [H2M] Reading analog out, ADC = 0.291

[223] setRegister dac_vthr 72 0

[224] delay 1000

[225] readAnalogOut 0
|18:16:32.102|    (INFO) [H2M] Reading analog out, ADC = 0.295

[226] setRegister dac_vthr 73 0

[227] delay 1000

[228] readAnalogOut 0
|18:16:33.103|    (INFO) [H2M] Reading analog out, ADC = 0.299

[229] setRegister dac_vthr 74 0

[230] delay 1000

[231] readAnalogOut 0
|18:16:34.103|    (INFO) [H2M] Reading analog out, ADC = 0.304

[232] setRegister dac_vthr 75 0

[233] delay 1000

[234] readAnalogOut 0
|18:16:35.104|    (INFO) [H2M] Reading analog out, ADC = 0.307

[235] setRegister dac_vthr 76 0

[236] delay 1000

[237] readAnalogOut 0
|18:16:36.105|    (INFO) [H2M] Reading analog out, ADC = 0.311

[238] setRegister dac_vthr 77 0

[239] delay 1000

[240] readAnalogOut 0
|18:16:37.106|    (INFO) [H2M] Reading analog out, ADC = 0.316

[241] setRegister dac_vthr 78 0

[242] delay 1000

[243] readAnalogOut 0
|18:16:38.107|    (INFO) [H2M] Reading analog out, ADC = 0.319

[244] setRegister dac_vthr 79 0

[245] delay 1000

[246] readAnalogOut 0
|18:16:39.107|    (INFO) [H2M] Reading analog out, ADC = 0.323

[247] setRegister dac_vthr 80 0

[248] delay 1000

[249] readAnalogOut 0
|18:16:40.108|    (INFO) [H2M] Reading analog out, ADC = 0.327

[250] setRegister dac_vthr 81 0

[251] delay 1000

[252] readAnalogOut 0
|18:16:41.109|    (INFO) [H2M] Reading analog out, ADC = 0.331

[253] setRegister dac_vthr 82 0

[254] delay 1000

[255] readAnalogOut 0
|18:16:42.110|    (INFO) [H2M] Reading analog out, ADC = 0.335

[256] setRegister dac_vthr 83 0

[257] delay 1000

[258] readAnalogOut 0
|18:16:43.111|    (INFO) [H2M] Reading analog out, ADC = 0.339

[259] setRegister dac_vthr 84 0

[260] delay 1000

[261] readAnalogOut 0
|18:16:44.111|    (INFO) [H2M] Reading analog out, ADC = 0.344

[262] setRegister dac_vthr 85 0

[263] delay 1000

[264] readAnalogOut 0
|18:16:45.112|    (INFO) [H2M] Reading analog out, ADC = 0.348

[265] setRegister dac_vthr 86 0

[266] delay 1000

[267] readAnalogOut 0
|18:16:46.113|    (INFO) [H2M] Reading analog out, ADC = 0.352

[268] setRegister dac_vthr 87 0

[269] delay 1000

[270] readAnalogOut 0
|18:16:47.114|    (INFO) [H2M] Reading analog out, ADC = 0.355

[271] setRegister dac_vthr 88 0

[272] delay 1000

[273] readAnalogOut 0
|18:16:48.115|    (INFO) [H2M] Reading analog out, ADC = 0.36

[274] setRegister dac_vthr 89 0

[275] delay 1000

[276] readAnalogOut 0
|18:16:49.116|    (INFO) [H2M] Reading analog out, ADC = 0.363

[277] setRegister dac_vthr 90 0

[278] delay 1000

[279] readAnalogOut 0
|18:16:50.116|    (INFO) [H2M] Reading analog out, ADC = 0.368

[280] setRegister dac_vthr 91 0

[281] delay 1000

[282] readAnalogOut 0
|18:16:51.117|    (INFO) [H2M] Reading analog out, ADC = 0.371

[283] setRegister dac_vthr 92 0

[284] delay 1000

[285] readAnalogOut 0
|18:16:52.118|    (INFO) [H2M] Reading analog out, ADC = 0.376

[286] setRegister dac_vthr 93 0

[287] delay 1000

[288] readAnalogOut 0
|18:16:53.119|    (INFO) [H2M] Reading analog out, ADC = 0.38

[289] setRegister dac_vthr 94 0

[290] delay 1000

[291] readAnalogOut 0
|18:16:54.120|    (INFO) [H2M] Reading analog out, ADC = 0.384

[292] setRegister dac_vthr 95 0

[293] delay 1000

[294] readAnalogOut 0
|18:16:55.120|    (INFO) [H2M] Reading analog out, ADC = 0.388

[295] setRegister dac_vthr 96 0

[296] delay 1000

[297] readAnalogOut 0
|18:16:56.121|    (INFO) [H2M] Reading analog out, ADC = 0.391

[298] setRegister dac_vthr 97 0

[299] delay 1000

[300] readAnalogOut 0
|18:16:57.122|    (INFO) [H2M] Reading analog out, ADC = 0.397

[301] setRegister dac_vthr 98 0

[302] delay 1000

[303] readAnalogOut 0
|18:16:58.123|    (INFO) [H2M] Reading analog out, ADC = 0.4

[304] setRegister dac_vthr 99 0

[305] delay 1000

[306] readAnalogOut 0
|18:16:59.124|    (INFO) [H2M] Reading analog out, ADC = 0.404

[307] setRegister dac_vthr 100 0

[308] delay 1000

[309] readAnalogOut 0
|18:17:00.124|    (INFO) [H2M] Reading analog out, ADC = 0.408

[310] setRegister dac_vthr 101 0

[311] delay 1000

[312] readAnalogOut 0
|18:17:01.125|    (INFO) [H2M] Reading analog out, ADC = 0.413

[313] setRegister dac_vthr 102 0

[314] delay 1000

[315] readAnalogOut 0
|18:17:02.126|    (INFO) [H2M] Reading analog out, ADC = 0.416

[316] setRegister dac_vthr 103 0

[317] delay 1000

[318] readAnalogOut 0
|18:17:03.127|    (INFO) [H2M] Reading analog out, ADC = 0.42

[319] setRegister dac_vthr 104 0

[320] delay 1000

[321] readAnalogOut 0
|18:17:04.128|    (INFO) [H2M] Reading analog out, ADC = 0.424

[322] setRegister dac_vthr 105 0

[323] delay 1000

[324] readAnalogOut 0
|18:17:05.128|    (INFO) [H2M] Reading analog out, ADC = 0.429

[325] setRegister dac_vthr 106 0

[326] delay 1000

[327] readAnalogOut 0
|18:17:06.129|    (INFO) [H2M] Reading analog out, ADC = 0.432

[328] setRegister dac_vthr 107 0

[329] delay 1000

[330] readAnalogOut 0
|18:17:07.130|    (INFO) [H2M] Reading analog out, ADC = 0.437

[331] setRegister dac_vthr 108 0

[332] delay 1000

[333] readAnalogOut 0
|18:17:08.131|    (INFO) [H2M] Reading analog out, ADC = 0.44

[334] setRegister dac_vthr 109 0

[335] delay 1000

[336] readAnalogOut 0
|18:17:09.132|    (INFO) [H2M] Reading analog out, ADC = 0.444

[337] setRegister dac_vthr 110 0

[338] delay 1000

[339] readAnalogOut 0
|18:17:10.133|    (INFO) [H2M] Reading analog out, ADC = 0.449

[340] setRegister dac_vthr 111 0

[341] delay 1000

[342] readAnalogOut 0
|18:17:11.133|    (INFO) [H2M] Reading analog out, ADC = 0.453

[343] setRegister dac_vthr 112 0

[344] delay 1000

[345] readAnalogOut 0
|18:17:12.134|    (INFO) [H2M] Reading analog out, ADC = 0.457

[346] setRegister dac_vthr 113 0

[347] delay 1000

[348] readAnalogOut 0
|18:17:13.135|    (INFO) [H2M] Reading analog out, ADC = 0.461

[349] setRegister dac_vthr 114 0

[350] delay 1000

[351] readAnalogOut 0
|18:17:14.136|    (INFO) [H2M] Reading analog out, ADC = 0.465

[352] setRegister dac_vthr 115 0

[353] delay 1000

[354] readAnalogOut 0
|18:17:15.137|    (INFO) [H2M] Reading analog out, ADC = 0.468

[355] setRegister dac_vthr 116 0

[356] delay 1000

[357] readAnalogOut 0
|18:17:16.137|    (INFO) [H2M] Reading analog out, ADC = 0.472

[358] setRegister dac_vthr 117 0

[359] delay 1000

[360] readAnalogOut 0
|18:17:17.138|    (INFO) [H2M] Reading analog out, ADC = 0.477

[361] setRegister dac_vthr 118 0

[362] delay 1000

[363] readAnalogOut 0
|18:17:18.139|    (INFO) [H2M] Reading analog out, ADC = 0.48

[364] setRegister dac_vthr 119 0

[365] delay 1000

[366] readAnalogOut 0
|18:17:19.140|    (INFO) [H2M] Reading analog out, ADC = 0.484

[367] setRegister dac_vthr 120 0

[368] delay 1000

[369] readAnalogOut 0
|18:17:20.141|    (INFO) [H2M] Reading analog out, ADC = 0.489

[370] setRegister dac_vthr 121 0

[371] delay 1000

[372] readAnalogOut 0
|18:17:21.141|    (INFO) [H2M] Reading analog out, ADC = 0.492

[373] setRegister dac_vthr 122 0

[374] delay 1000

[375] readAnalogOut 0
|18:17:22.142|    (INFO) [H2M] Reading analog out, ADC = 0.497

[376] setRegister dac_vthr 123 0

[377] delay 1000

[378] readAnalogOut 0
|18:17:23.143|    (INFO) [H2M] Reading analog out, ADC = 0.501

[379] setRegister dac_vthr 124 0

[380] delay 1000

[381] readAnalogOut 0
|18:17:24.144|    (INFO) [H2M] Reading analog out, ADC = 0.505

[382] setRegister dac_vthr 125 0

[383] delay 1000

[384] readAnalogOut 0
|18:17:25.145|    (INFO) [H2M] Reading analog out, ADC = 0.509

[385] setRegister dac_vthr 126 0

[386] delay 1000

[387] readAnalogOut 0
|18:17:26.145|    (INFO) [H2M] Reading analog out, ADC = 0.512

[388] setRegister dac_vthr 127 0

[389] delay 1000

[390] readAnalogOut 0
|18:17:27.146|    (INFO) [H2M] Reading analog out, ADC = 0.517

[391] setRegister dac_vthr 128 0

[392] delay 1000

[393] readAnalogOut 0
|18:17:28.147|    (INFO) [H2M] Reading analog out, ADC = 0.522

[394] setRegister dac_vthr 129 0

[395] delay 1000

[396] readAnalogOut 0
|18:17:29.148|    (INFO) [H2M] Reading analog out, ADC = 0.525

[397] setRegister dac_vthr 130 0

[398] delay 1000

[399] readAnalogOut 0
|18:17:30.149|    (INFO) [H2M] Reading analog out, ADC = 0.53

[400] setRegister dac_vthr 131 0

[401] delay 1000

[402] readAnalogOut 0
|18:17:31.150|    (INFO) [H2M] Reading analog out, ADC = 0.534

[403] setRegister dac_vthr 132 0

[404] delay 1000

[405] readAnalogOut 0
|18:17:32.150|    (INFO) [H2M] Reading analog out, ADC = 0.538

[406] setRegister dac_vthr 133 0

[407] delay 1000

[408] readAnalogOut 0
|18:17:33.151|    (INFO) [H2M] Reading analog out, ADC = 0.543

[409] setRegister dac_vthr 134 0

[410] delay 1000

[411] readAnalogOut 0
|18:17:34.152|    (INFO) [H2M] Reading analog out, ADC = 0.547

[412] setRegister dac_vthr 135 0

[413] delay 1000

[414] readAnalogOut 0
|18:17:35.153|    (INFO) [H2M] Reading analog out, ADC = 0.55

[415] setRegister dac_vthr 136 0

[416] delay 1000

[417] readAnalogOut 0
|18:17:36.154|    (INFO) [H2M] Reading analog out, ADC = 0.553

[418] setRegister dac_vthr 137 0

[419] delay 1000

[420] readAnalogOut 0
|18:17:37.154|    (INFO) [H2M] Reading analog out, ADC = 0.559

[421] setRegister dac_vthr 138 0

[422] delay 1000

[423] readAnalogOut 0
|18:17:38.155|    (INFO) [H2M] Reading analog out, ADC = 0.563

[424] setRegister dac_vthr 139 0

[425] delay 1000

[426] readAnalogOut 0
|18:17:39.156|    (INFO) [H2M] Reading analog out, ADC = 0.566

[427] setRegister dac_vthr 140 0

[428] delay 1000

[429] readAnalogOut 0
|18:17:40.157|    (INFO) [H2M] Reading analog out, ADC = 0.57

[430] setRegister dac_vthr 141 0

[431] delay 1000

[432] readAnalogOut 0
|18:17:41.158|    (INFO) [H2M] Reading analog out, ADC = 0.574

[433] setRegister dac_vthr 142 0

[434] delay 1000

[435] readAnalogOut 0
|18:17:42.158|    (INFO) [H2M] Reading analog out, ADC = 0.578

[436] setRegister dac_vthr 143 0

[437] delay 1000

[438] readAnalogOut 0
|18:17:43.159|    (INFO) [H2M] Reading analog out, ADC = 0.583

[439] setRegister dac_vthr 144 0

[440] delay 1000

[441] readAnalogOut 0
|18:17:44.160|    (INFO) [H2M] Reading analog out, ADC = 0.587

[442] setRegister dac_vthr 145 0

[443] delay 1000

[444] readAnalogOut 0
|18:17:45.161|    (INFO) [H2M] Reading analog out, ADC = 0.59

[445] setRegister dac_vthr 146 0

[446] delay 1000

[447] readAnalogOut 0
|18:17:46.162|    (INFO) [H2M] Reading analog out, ADC = 0.594

[448] setRegister dac_vthr 147 0

[449] delay 1000

[450] readAnalogOut 0
|18:17:47.162|    (INFO) [H2M] Reading analog out, ADC = 0.6

[451] setRegister dac_vthr 148 0

[452] delay 1000

[453] readAnalogOut 0
|18:17:48.163|    (INFO) [H2M] Reading analog out, ADC = 0.603

[454] setRegister dac_vthr 149 0

[455] delay 1000

[456] readAnalogOut 0
|18:17:49.164|    (INFO) [H2M] Reading analog out, ADC = 0.607

[457] setRegister dac_vthr 150 0

[458] delay 1000

[459] readAnalogOut 0
|18:17:50.165|    (INFO) [H2M] Reading analog out, ADC = 0.611

[460] setRegister dac_vthr 151 0

[461] delay 1000

[462] readAnalogOut 0
|18:17:51.166|    (INFO) [H2M] Reading analog out, ADC = 0.615

[463] setRegister dac_vthr 152 0

[464] delay 1000

[465] readAnalogOut 0
|18:17:52.167|    (INFO) [H2M] Reading analog out, ADC = 0.619

[466] setRegister dac_vthr 153 0

[467] delay 1000

[468] readAnalogOut 0
|18:17:53.167|    (INFO) [H2M] Reading analog out, ADC = 0.623

[469] setRegister dac_vthr 154 0

[470] delay 1000

[471] readAnalogOut 0
|18:17:54.168|    (INFO) [H2M] Reading analog out, ADC = 0.627

[472] setRegister dac_vthr 155 0

[473] delay 1000

[474] readAnalogOut 0
|18:17:55.169|    (INFO) [H2M] Reading analog out, ADC = 0.631

[475] setRegister dac_vthr 156 0

[476] delay 1000

[477] readAnalogOut 0
|18:17:56.170|    (INFO) [H2M] Reading analog out, ADC = 0.636

[478] setRegister dac_vthr 157 0

[479] delay 1000

[480] readAnalogOut 0
|18:17:57.171|    (INFO) [H2M] Reading analog out, ADC = 0.64

[481] setRegister dac_vthr 158 0

[482] delay 1000

[483] readAnalogOut 0
|18:17:58.171|    (INFO) [H2M] Reading analog out, ADC = 0.643

[484] setRegister dac_vthr 159 0

[485] delay 1000

[486] readAnalogOut 0
|18:17:59.172|    (INFO) [H2M] Reading analog out, ADC = 0.647

[487] setRegister dac_vthr 160 0

[488] delay 1000

[489] readAnalogOut 0
|18:18:00.173|    (INFO) [H2M] Reading analog out, ADC = 0.651

[490] setRegister dac_vthr 161 0

[491] delay 1000

[492] readAnalogOut 0
|18:18:01.174|    (INFO) [H2M] Reading analog out, ADC = 0.656

[493] setRegister dac_vthr 162 0

[494] delay 1000

[495] readAnalogOut 0
|18:18:02.175|    (INFO) [H2M] Reading analog out, ADC = 0.659

[496] setRegister dac_vthr 163 0

[497] delay 1000

[498] readAnalogOut 0
|18:18:03.176|    (INFO) [H2M] Reading analog out, ADC = 0.663

[499] setRegister dac_vthr 164 0

[500] delay 1000

[501] readAnalogOut 0
|18:18:04.177|    (INFO) [H2M] Reading analog out, ADC = 0.668

[502] setRegister dac_vthr 165 0

[503] delay 1000

[504] readAnalogOut 0
|18:18:05.177|    (INFO) [H2M] Reading analog out, ADC = 0.672

[505] setRegister dac_vthr 166 0

[506] delay 1000

[507] readAnalogOut 0
|18:18:06.178|    (INFO) [H2M] Reading analog out, ADC = 0.676

[508] setRegister dac_vthr 167 0

[509] delay 1000

[510] readAnalogOut 0
|18:18:07.179|    (INFO) [H2M] Reading analog out, ADC = 0.681

[511] setRegister dac_vthr 168 0

[512] delay 1000

[513] readAnalogOut 0
|18:18:08.180|    (INFO) [H2M] Reading analog out, ADC = 0.684

[514] setRegister dac_vthr 169 0

[515] delay 1000

[516] readAnalogOut 0
|18:18:09.181|    (INFO) [H2M] Reading analog out, ADC = 0.688

[517] setRegister dac_vthr 170 0

[518] delay 1000

[519] readAnalogOut 0
|18:18:10.181|    (INFO) [H2M] Reading analog out, ADC = 0.692

[520] setRegister dac_vthr 171 0

[521] delay 1000

[522] readAnalogOut 0
|18:18:11.182|    (INFO) [H2M] Reading analog out, ADC = 0.696

[523] setRegister dac_vthr 172 0

[524] delay 1000

[525] readAnalogOut 0
|18:18:12.183|    (INFO) [H2M] Reading analog out, ADC = 0.699

[526] setRegister dac_vthr 173 0

[527] delay 1000

[528] readAnalogOut 0
|18:18:13.184|    (INFO) [H2M] Reading analog out, ADC = 0.703

[529] setRegister dac_vthr 174 0

[530] delay 1000

[531] readAnalogOut 0
|18:18:14.185|    (INFO) [H2M] Reading analog out, ADC = 0.708

[532] setRegister dac_vthr 175 0

[533] delay 1000

[534] readAnalogOut 0
|18:18:15.185|    (INFO) [H2M] Reading analog out, ADC = 0.712

[535] setRegister dac_vthr 176 0

[536] delay 1000

[537] readAnalogOut 0
|18:18:16.186|    (INFO) [H2M] Reading analog out, ADC = 0.716

[538] setRegister dac_vthr 177 0

[539] delay 1000

[540] readAnalogOut 0
|18:18:17.187|    (INFO) [H2M] Reading analog out, ADC = 0.721

[541] setRegister dac_vthr 178 0

[542] delay 1000

[543] readAnalogOut 0
|18:18:18.188|    (INFO) [H2M] Reading analog out, ADC = 0.724

[544] setRegister dac_vthr 179 0

[545] delay 1000

[546] readAnalogOut 0
|18:18:19.189|    (INFO) [H2M] Reading analog out, ADC = 0.728

[547] setRegister dac_vthr 180 0

[548] delay 1000

[549] readAnalogOut 0
|18:18:20.189|    (INFO) [H2M] Reading analog out, ADC = 0.731

[550] setRegister dac_vthr 181 0

[551] delay 1000

[552] readAnalogOut 0
|18:18:21.190|    (INFO) [H2M] Reading analog out, ADC = 0.736

[553] setRegister dac_vthr 182 0

[554] delay 1000

[555] readAnalogOut 0
|18:18:22.191|    (INFO) [H2M] Reading analog out, ADC = 0.741

[556] setRegister dac_vthr 183 0

[557] delay 1000

[558] readAnalogOut 0
|18:18:23.192|    (INFO) [H2M] Reading analog out, ADC = 0.743

[559] setRegister dac_vthr 184 0

[560] delay 1000

[561] readAnalogOut 0
|18:18:24.193|    (INFO) [H2M] Reading analog out, ADC = 0.748

[562] setRegister dac_vthr 185 0

[563] delay 1000

[564] readAnalogOut 0
|18:18:25.193|    (INFO) [H2M] Reading analog out, ADC = 0.752

[565] setRegister dac_vthr 186 0

[566] delay 1000

[567] readAnalogOut 0
|18:18:26.194|    (INFO) [H2M] Reading analog out, ADC = 0.755

[568] setRegister dac_vthr 187 0

[569] delay 1000

[570] readAnalogOut 0
|18:18:27.195|    (INFO) [H2M] Reading analog out, ADC = 0.759

[571] setRegister dac_vthr 188 0

[572] delay 1000

[573] readAnalogOut 0
|18:18:28.196|    (INFO) [H2M] Reading analog out, ADC = 0.764

[574] setRegister dac_vthr 189 0

[575] delay 1000

[576] readAnalogOut 0
|18:18:29.197|    (INFO) [H2M] Reading analog out, ADC = 0.768

[577] setRegister dac_vthr 190 0

[578] delay 1000

[579] readAnalogOut 0
|18:18:30.198|    (INFO) [H2M] Reading analog out, ADC = 0.771

[580] setRegister dac_vthr 191 0

[581] delay 1000

[582] readAnalogOut 0
|18:18:31.198|    (INFO) [H2M] Reading analog out, ADC = 0.776

[583] setRegister dac_vthr 192 0

[584] delay 1000

[585] readAnalogOut 0
|18:18:32.199|    (INFO) [H2M] Reading analog out, ADC = 0.78

[586] setRegister dac_vthr 193 0

[587] delay 1000

[588] readAnalogOut 0
|18:18:33.200|    (INFO) [H2M] Reading analog out, ADC = 0.784

[589] setRegister dac_vthr 194 0

[590] delay 1000

[591] readAnalogOut 0
|18:18:34.201|    (INFO) [H2M] Reading analog out, ADC = 0.788

[592] setRegister dac_vthr 195 0

[593] delay 1000

[594] readAnalogOut 0
|18:18:35.202|    (INFO) [H2M] Reading analog out, ADC = 0.793

[595] setRegister dac_vthr 196 0

[596] delay 1000

[597] readAnalogOut 0
|18:18:36.202|    (INFO) [H2M] Reading analog out, ADC = 0.797

[598] setRegister dac_vthr 197 0

[599] delay 1000

[600] readAnalogOut 0
|18:18:37.203|    (INFO) [H2M] Reading analog out, ADC = 0.8

[601] setRegister dac_vthr 198 0

[602] delay 1000

[603] readAnalogOut 0
|18:18:38.204|    (INFO) [H2M] Reading analog out, ADC = 0.804

[604] setRegister dac_vthr 199 0

[605] delay 1000

[606] readAnalogOut 0
|18:18:39.205|    (INFO) [H2M] Reading analog out, ADC = 0.808

[607] setRegister dac_vthr 200 0

[608] delay 1000

[609] readAnalogOut 0
|18:18:40.206|    (INFO) [H2M] Reading analog out, ADC = 0.813

[610] setRegister dac_vthr 201 0

[611] delay 1000

[612] readAnalogOut 0
|18:18:41.207|    (INFO) [H2M] Reading analog out, ADC = 0.816

[613] setRegister dac_vthr 202 0

[614] delay 1000

[615] readAnalogOut 0
|18:18:42.207|    (INFO) [H2M] Reading analog out, ADC = 0.821

[616] setRegister dac_vthr 203 0

[617] delay 1000

[618] readAnalogOut 0
|18:18:43.208|    (INFO) [H2M] Reading analog out, ADC = 0.825

[619] setRegister dac_vthr 204 0

[620] delay 1000

[621] readAnalogOut 0
|18:18:44.209|    (INFO) [H2M] Reading analog out, ADC = 0.828

[622] setRegister dac_vthr 205 0

[623] delay 1000

[624] readAnalogOut 0
|18:18:45.210|    (INFO) [H2M] Reading analog out, ADC = 0.832

[625] setRegister dac_vthr 206 0

[626] delay 1000

[627] readAnalogOut 0
|18:18:46.211|    (INFO) [H2M] Reading analog out, ADC = 0.838

[628] setRegister dac_vthr 207 0

[629] delay 1000

[630] readAnalogOut 0
|18:18:47.211|    (INFO) [H2M] Reading analog out, ADC = 0.84

[631] setRegister dac_vthr 208 0

[632] delay 1000

[633] readAnalogOut 0
|18:18:48.212|    (INFO) [H2M] Reading analog out, ADC = 0.844

[634] setRegister dac_vthr 209 0

[635] delay 1000

[636] readAnalogOut 0
|18:18:49.213|    (INFO) [H2M] Reading analog out, ADC = 0.85

[637] setRegister dac_vthr 210 0

[638] delay 1000

[639] readAnalogOut 0
|18:18:50.214|    (INFO) [H2M] Reading analog out, ADC = 0.854

[640] setRegister dac_vthr 211 0

[641] delay 1000

[642] readAnalogOut 0
|18:18:51.215|    (INFO) [H2M] Reading analog out, ADC = 0.856

[643] setRegister dac_vthr 212 0

[644] delay 1000

[645] readAnalogOut 0
|18:18:52.215|    (INFO) [H2M] Reading analog out, ADC = 0.862

[646] setRegister dac_vthr 213 0

[647] delay 1000

[648] readAnalogOut 0
|18:18:53.216|    (INFO) [H2M] Reading analog out, ADC = 0.864

[649] setRegister dac_vthr 214 0

[650] delay 1000

[651] readAnalogOut 0
|18:18:54.217|    (INFO) [H2M] Reading analog out, ADC = 0.87

[652] setRegister dac_vthr 215 0

[653] delay 1000

[654] readAnalogOut 0
|18:18:55.218|    (INFO) [H2M] Reading analog out, ADC = 0.873

[655] setRegister dac_vthr 216 0

[656] delay 1000

[657] readAnalogOut 0
|18:18:56.219|    (INFO) [H2M] Reading analog out, ADC = 0.877

[658] setRegister dac_vthr 217 0

[659] delay 1000

[660] readAnalogOut 0
|18:18:57.219|    (INFO) [H2M] Reading analog out, ADC = 0.881

[661] setRegister dac_vthr 218 0

[662] delay 1000

[663] readAnalogOut 0
|18:18:58.220|    (INFO) [H2M] Reading analog out, ADC = 0.886

[664] setRegister dac_vthr 219 0

[665] delay 1000

[666] readAnalogOut 0
|18:18:59.221|    (INFO) [H2M] Reading analog out, ADC = 0.89

[667] setRegister dac_vthr 220 0

[668] delay 1000

[669] readAnalogOut 0
|18:19:00.222|    (INFO) [H2M] Reading analog out, ADC = 0.894

[670] setRegister dac_vthr 221 0

[671] delay 1000

[672] readAnalogOut 0
|18:19:01.223|    (INFO) [H2M] Reading analog out, ADC = 0.898

[673] setRegister dac_vthr 222 0

[674] delay 1000

[675] readAnalogOut 0
|18:19:02.224|    (INFO) [H2M] Reading analog out, ADC = 0.902

[676] setRegister dac_vthr 223 0

[677] delay 1000

[678] readAnalogOut 0
|18:19:03.224|    (INFO) [H2M] Reading analog out, ADC = 0.905

[679] setRegister dac_vthr 224 0

[680] delay 1000

[681] readAnalogOut 0
|18:19:04.225|    (INFO) [H2M] Reading analog out, ADC = 0.91

[682] setRegister dac_vthr 225 0

[683] delay 1000

[684] readAnalogOut 0
|18:19:05.226|    (INFO) [H2M] Reading analog out, ADC = 0.914

[685] setRegister dac_vthr 226 0

[686] delay 1000

[687] readAnalogOut 0
|18:19:06.227|    (INFO) [H2M] Reading analog out, ADC = 0.918

[688] setRegister dac_vthr 227 0

[689] delay 1000

[690] readAnalogOut 0
|18:19:07.228|    (INFO) [H2M] Reading analog out, ADC = 0.923

[691] setRegister dac_vthr 228 0

[692] delay 1000

[693] readAnalogOut 0
|18:19:08.229|    (INFO) [H2M] Reading analog out, ADC = 0.926

[694] setRegister dac_vthr 229 0

[695] delay 1000

[696] readAnalogOut 0
|18:19:09.229|    (INFO) [H2M] Reading analog out, ADC = 0.931

[697] setRegister dac_vthr 230 0

[698] delay 1000

[699] readAnalogOut 0
|18:19:10.230|    (INFO) [H2M] Reading analog out, ADC = 0.935

[700] setRegister dac_vthr 231 0

[701] delay 1000

[702] readAnalogOut 0
|18:19:11.231|    (INFO) [H2M] Reading analog out, ADC = 0.939

[703] setRegister dac_vthr 232 0

[704] delay 1000

[705] readAnalogOut 0
|18:19:12.232|    (INFO) [H2M] Reading analog out, ADC = 0.942

[706] setRegister dac_vthr 233 0

[707] delay 1000

[708] readAnalogOut 0
|18:19:13.233|    (INFO) [H2M] Reading analog out, ADC = 0.946

[709] setRegister dac_vthr 234 0

[710] delay 1000

[711] readAnalogOut 0
|18:19:14.233|    (INFO) [H2M] Reading analog out, ADC = 0.949

[712] setRegister dac_vthr 235 0

[713] delay 1000

[714] readAnalogOut 0
|18:19:15.234|    (INFO) [H2M] Reading analog out, ADC = 0.956

[715] setRegister dac_vthr 236 0

[716] delay 1000

[717] readAnalogOut 0
|18:19:16.235|    (INFO) [H2M] Reading analog out, ADC = 0.959

[718] setRegister dac_vthr 237 0

[719] delay 1000

[720] readAnalogOut 0
|18:19:17.236|    (INFO) [H2M] Reading analog out, ADC = 0.963

[721] setRegister dac_vthr 238 0

[722] delay 1000

[723] readAnalogOut 0
|18:19:18.237|    (INFO) [H2M] Reading analog out, ADC = 0.967

[724] setRegister dac_vthr 239 0

[725] delay 1000

[726] readAnalogOut 0
|18:19:19.237|    (INFO) [H2M] Reading analog out, ADC = 0.972

[727] setRegister dac_vthr 240 0

[728] delay 1000

[729] readAnalogOut 0
|18:19:20.238|    (INFO) [H2M] Reading analog out, ADC = 0.975

[730] setRegister dac_vthr 241 0

[731] delay 1000

[732] readAnalogOut 0
|18:19:21.239|    (INFO) [H2M] Reading analog out, ADC = 0.978

[733] setRegister dac_vthr 242 0

[734] delay 1000

[735] readAnalogOut 0
|18:19:22.240|    (INFO) [H2M] Reading analog out, ADC = 0.982

[736] setRegister dac_vthr 243 0

[737] delay 1000

[738] readAnalogOut 0
|18:19:23.241|    (INFO) [H2M] Reading analog out, ADC = 0.986

[739] setRegister dac_vthr 244 0

[740] delay 1000

[741] readAnalogOut 0
|18:19:24.241|    (INFO) [H2M] Reading analog out, ADC = 0.991

[742] setRegister dac_vthr 245 0

[743] delay 1000

[744] readAnalogOut 0
|18:19:25.242|    (INFO) [H2M] Reading analog out, ADC = 0.994

[745] setRegister dac_vthr 246 0

[746] delay 1000

[747] readAnalogOut 0
|18:19:26.243|    (INFO) [H2M] Reading analog out, ADC = 0.999

[748] setRegister dac_vthr 247 0

[749] delay 1000

[750] readAnalogOut 0
|18:19:27.244|    (INFO) [H2M] Reading analog out, ADC = 1.003

[751] setRegister dac_vthr 248 0

[752] delay 1000

[753] readAnalogOut 0
|18:19:28.245|    (INFO) [H2M] Reading analog out, ADC = 1.007

[754] setRegister dac_vthr 249 0

[755] delay 1000

[756] readAnalogOut 0
|18:19:29.246|    (INFO) [H2M] Reading analog out, ADC = 1.014

[757] setRegister dac_vthr 250 0

[758] delay 1000

[759] readAnalogOut 0
|18:19:30.246|    (INFO) [H2M] Reading analog out, ADC = 1.016

[760] setRegister dac_vthr 251 0

[761] delay 1000

[762] readAnalogOut 0
|18:19:31.247|    (INFO) [H2M] Reading analog out, ADC = 1.02

[763] setRegister dac_vthr 252 0

[764] delay 1000

[765] readAnalogOut 0
|18:19:32.248|    (INFO) [H2M] Reading analog out, ADC = 1.025

[766] setRegister dac_vthr 253 0

[767] delay 1000

[768] readAnalogOut 0
|18:19:33.249|    (INFO) [H2M] Reading analog out, ADC = 1.028

[769] setRegister dac_vthr 254 0

[770] delay 1000

[771] readAnalogOut 0
|18:19:34.250|    (INFO) [H2M] Reading analog out, ADC = 1.032

[772] setRegister dac_vthr 255 0

[773] delay 1000

[774] readAnalogOut 0
|18:19:35.251|    (INFO) [H2M] Reading analog out, ADC = 1.037
