col: 10 row: 11
col: 11 row: 8
col: 13 row: 11
col: 17 row: 12
col: 20 row: 3
col: 20 row: 4
col: 32 row: 13
col: 34 row: 2
col: 35 row: 10
col: 42 row: 11
col: 45 row: 4
col: 48 row: 13
col: 58 row: 15
col: 59 row: 15
