|14:31:52.117|    (INFO) [H2M] Reading analog out, ADC = 1.059

[10] setRegister dac_ibias 1 0

[11] delay 1000

[12] readAnalogOut 0
|14:31:53.118|    (INFO) [H2M] Reading analog out, ADC = 0.965

[13] setRegister dac_ibias 2 0

[14] delay 1000

[15] readAnalogOut 0
|14:31:54.118|    (INFO) [H2M] Reading analog out, ADC = 0.931

[16] setRegister dac_ibias 3 0

[17] delay 1000

[18] readAnalogOut 0
|14:31:55.119|    (INFO) [H2M] Reading analog out, ADC = 0.909

[19] setRegister dac_ibias 4 0

[20] delay 1000

[21] readAnalogOut 0
|14:31:56.120|    (INFO) [H2M] Reading analog out, ADC = 0.891

[22] setRegister dac_ibias 5 0

[23] delay 1000

[24] readAnalogOut 0
|14:31:57.121|    (INFO) [H2M] Reading analog out, ADC = 0.877

[25] setRegister dac_ibias 6 0

[26] delay 1000

[27] readAnalogOut 0
|14:31:58.122|    (INFO) [H2M] Reading analog out, ADC = 0.865

[28] setRegister dac_ibias 7 0

[29] delay 1000

[30] readAnalogOut 0
|14:31:59.122|    (INFO) [H2M] Reading analog out, ADC = 0.854

[31] setRegister dac_ibias 8 0

[32] delay 1000

[33] readAnalogOut 0
|14:32:00.123|    (INFO) [H2M] Reading analog out, ADC = 0.844

[34] setRegister dac_ibias 9 0

[35] delay 1000

[36] readAnalogOut 0
|14:32:01.124|    (INFO) [H2M] Reading analog out, ADC = 0.835

[37] setRegister dac_ibias 10 0

[38] delay 1000

[39] readAnalogOut 0
|14:32:02.125|    (INFO) [H2M] Reading analog out, ADC = 0.827

[40] setRegister dac_ibias 11 0

[41] delay 1000

[42] readAnalogOut 0
|14:32:03.126|    (INFO) [H2M] Reading analog out, ADC = 0.82

[43] setRegister dac_ibias 12 0

[44] delay 1000

[45] readAnalogOut 0
|14:32:04.127|    (INFO) [H2M] Reading analog out, ADC = 0.813

[46] setRegister dac_ibias 13 0

[47] delay 1000

[48] readAnalogOut 0
|14:32:05.127|    (INFO) [H2M] Reading analog out, ADC = 0.806

[49] setRegister dac_ibias 14 0

[50] delay 1000

[51] readAnalogOut 0
|14:32:06.128|    (INFO) [H2M] Reading analog out, ADC = 0.8

[52] setRegister dac_ibias 15 0

[53] delay 1000

[54] readAnalogOut 0
|14:32:07.129|    (INFO) [H2M] Reading analog out, ADC = 0.793

[55] setRegister dac_ibias 16 0

[56] delay 1000

[57] readAnalogOut 0
|14:32:08.130|    (INFO) [H2M] Reading analog out, ADC = 0.787

[58] setRegister dac_ibias 17 0

[59] delay 1000

[60] readAnalogOut 0
|14:32:09.131|    (INFO) [H2M] Reading analog out, ADC = 0.783

[61] setRegister dac_ibias 18 0

[62] delay 1000

[63] readAnalogOut 0
|14:32:10.131|    (INFO) [H2M] Reading analog out, ADC = 0.777

[64] setRegister dac_ibias 19 0

[65] delay 1000

[66] readAnalogOut 0
|14:32:11.132|    (INFO) [H2M] Reading analog out, ADC = 0.772

[67] setRegister dac_ibias 20 0

[68] delay 1000

[69] readAnalogOut 0
|14:32:12.133|    (INFO) [H2M] Reading analog out, ADC = 0.767

[70] setRegister dac_ibias 21 0

[71] delay 1000

[72] readAnalogOut 0
|14:32:13.134|    (INFO) [H2M] Reading analog out, ADC = 0.763

[73] setRegister dac_ibias 22 0

[74] delay 1000

[75] readAnalogOut 0
|14:32:14.135|    (INFO) [H2M] Reading analog out, ADC = 0.756

[76] setRegister dac_ibias 23 0

[77] delay 1000

[78] readAnalogOut 0
|14:32:15.135|    (INFO) [H2M] Reading analog out, ADC = 0.752

[79] setRegister dac_ibias 24 0

[80] delay 1000

[81] readAnalogOut 0
|14:32:16.136|    (INFO) [H2M] Reading analog out, ADC = 0.747

[82] setRegister dac_ibias 25 0

[83] delay 1000

[84] readAnalogOut 0
|14:32:17.137|    (INFO) [H2M] Reading analog out, ADC = 0.742

[85] setRegister dac_ibias 26 0

[86] delay 1000

[87] readAnalogOut 0
|14:32:18.138|    (INFO) [H2M] Reading analog out, ADC = 0.738

[88] setRegister dac_ibias 27 0

[89] delay 1000

[90] readAnalogOut 0
|14:32:19.139|    (INFO) [H2M] Reading analog out, ADC = 0.733

[91] setRegister dac_ibias 28 0

[92] delay 1000

[93] readAnalogOut 0
|14:32:20.140|    (INFO) [H2M] Reading analog out, ADC = 0.729

[94] setRegister dac_ibias 29 0

[95] delay 1000

[96] readAnalogOut 0
|14:32:21.140|    (INFO) [H2M] Reading analog out, ADC = 0.725

[97] setRegister dac_ibias 30 0

[98] delay 1000

[99] readAnalogOut 0
|14:32:22.141|    (INFO) [H2M] Reading analog out, ADC = 0.72

[100] setRegister dac_ibias 31 0

[101] delay 1000

[102] readAnalogOut 0
|14:32:23.142|    (INFO) [H2M] Reading analog out, ADC = 0.716

[103] setRegister dac_ibias 32 0

[104] delay 1000

[105] readAnalogOut 0
|14:32:24.143|    (INFO) [H2M] Reading analog out, ADC = 0.712

[106] setRegister dac_ibias 33 0

[107] delay 1000

[108] readAnalogOut 0
|14:32:25.144|    (INFO) [H2M] Reading analog out, ADC = 0.708

[109] setRegister dac_ibias 34 0

[110] delay 1000

[111] readAnalogOut 0
|14:32:26.145|    (INFO) [H2M] Reading analog out, ADC = 0.704

[112] setRegister dac_ibias 35 0

[113] delay 1000

[114] readAnalogOut 0
|14:32:27.145|    (INFO) [H2M] Reading analog out, ADC = 0.7

[115] setRegister dac_ibias 36 0

[116] delay 1000

[117] readAnalogOut 0
|14:32:28.146|    (INFO) [H2M] Reading analog out, ADC = 0.696

[118] setRegister dac_ibias 37 0

[119] delay 1000

[120] readAnalogOut 0
|14:32:29.147|    (INFO) [H2M] Reading analog out, ADC = 0.693

[121] setRegister dac_ibias 38 0

[122] delay 1000

[123] readAnalogOut 0
|14:32:30.148|    (INFO) [H2M] Reading analog out, ADC = 0.688

[124] setRegister dac_ibias 39 0

[125] delay 1000

[126] readAnalogOut 0
|14:32:31.149|    (INFO) [H2M] Reading analog out, ADC = 0.685

[127] setRegister dac_ibias 40 0

[128] delay 1000

[129] readAnalogOut 0
|14:32:32.149|    (INFO) [H2M] Reading analog out, ADC = 0.681

[130] setRegister dac_ibias 41 0

[131] delay 1000

[132] readAnalogOut 0
|14:32:33.150|    (INFO) [H2M] Reading analog out, ADC = 0.677

[133] setRegister dac_ibias 42 0

[134] delay 1000

[135] readAnalogOut 0
|14:32:34.151|    (INFO) [H2M] Reading analog out, ADC = 0.674

[136] setRegister dac_ibias 43 0

[137] delay 1000

[138] readAnalogOut 0
|14:32:35.152|    (INFO) [H2M] Reading analog out, ADC = 0.671

[139] setRegister dac_ibias 44 0

[140] delay 1000

[141] readAnalogOut 0
|14:32:36.153|    (INFO) [H2M] Reading analog out, ADC = 0.667

[142] setRegister dac_ibias 45 0

[143] delay 1000

[144] readAnalogOut 0
|14:32:37.154|    (INFO) [H2M] Reading analog out, ADC = 0.663

[145] setRegister dac_ibias 46 0

[146] delay 1000

[147] readAnalogOut 0
|14:32:38.155|    (INFO) [H2M] Reading analog out, ADC = 0.66

[148] setRegister dac_ibias 47 0

[149] delay 1000

[150] readAnalogOut 0
|14:32:39.155|    (INFO) [H2M] Reading analog out, ADC = 0.656

[151] setRegister dac_ibias 48 0

[152] delay 1000

[153] readAnalogOut 0
|14:32:40.156|    (INFO) [H2M] Reading analog out, ADC = 0.652

[154] setRegister dac_ibias 49 0

[155] delay 1000

[156] readAnalogOut 0
|14:32:41.157|    (INFO) [H2M] Reading analog out, ADC = 0.649

[157] setRegister dac_ibias 50 0

[158] delay 1000

[159] readAnalogOut 0
|14:32:42.158|    (INFO) [H2M] Reading analog out, ADC = 0.646

[160] setRegister dac_ibias 51 0

[161] delay 1000

[162] readAnalogOut 0
|14:32:43.158|    (INFO) [H2M] Reading analog out, ADC = 0.643

[163] setRegister dac_ibias 52 0

[164] delay 1000

[165] readAnalogOut 0
|14:32:44.159|    (INFO) [H2M] Reading analog out, ADC = 0.639

[166] setRegister dac_ibias 53 0

[167] delay 1000

[168] readAnalogOut 0
|14:32:45.160|    (INFO) [H2M] Reading analog out, ADC = 0.637

[169] setRegister dac_ibias 54 0

[170] delay 1000

[171] readAnalogOut 0
|14:32:46.161|    (INFO) [H2M] Reading analog out, ADC = 0.634

[172] setRegister dac_ibias 55 0

[173] delay 1000

[174] readAnalogOut 0
|14:32:47.162|    (INFO) [H2M] Reading analog out, ADC = 0.631

[175] setRegister dac_ibias 56 0

[176] delay 1000

[177] readAnalogOut 0
|14:32:48.163|    (INFO) [H2M] Reading analog out, ADC = 0.627

[178] setRegister dac_ibias 57 0

[179] delay 1000

[180] readAnalogOut 0
|14:32:49.163|    (INFO) [H2M] Reading analog out, ADC = 0.624

[181] setRegister dac_ibias 58 0

[182] delay 1000

[183] readAnalogOut 0
|14:32:50.164|    (INFO) [H2M] Reading analog out, ADC = 0.621

[184] setRegister dac_ibias 59 0

[185] delay 1000

[186] readAnalogOut 0
|14:32:51.165|    (INFO) [H2M] Reading analog out, ADC = 0.618

[187] setRegister dac_ibias 60 0

[188] delay 1000

[189] readAnalogOut 0
|14:32:52.166|    (INFO) [H2M] Reading analog out, ADC = 0.615

[190] setRegister dac_ibias 61 0

[191] delay 1000

[192] readAnalogOut 0
|14:32:53.167|    (INFO) [H2M] Reading analog out, ADC = 0.612

[193] setRegister dac_ibias 62 0

[194] delay 1000

[195] readAnalogOut 0
|14:32:54.167|    (INFO) [H2M] Reading analog out, ADC = 0.609

[196] setRegister dac_ibias 63 0

[197] delay 1000

[198] readAnalogOut 0
|14:32:55.168|    (INFO) [H2M] Reading analog out, ADC = 0.607

[199] setRegister dac_ibias 64 0

[200] delay 1000

[201] readAnalogOut 0
|14:32:56.169|    (INFO) [H2M] Reading analog out, ADC = 0.604

[202] setRegister dac_ibias 65 0

[203] delay 1000

[204] readAnalogOut 0
|14:32:57.170|    (INFO) [H2M] Reading analog out, ADC = 0.602

[205] setRegister dac_ibias 66 0

[206] delay 1000

[207] readAnalogOut 0
|14:32:58.171|    (INFO) [H2M] Reading analog out, ADC = 0.598

[208] setRegister dac_ibias 67 0

[209] delay 1000

[210] readAnalogOut 0
|14:32:59.171|    (INFO) [H2M] Reading analog out, ADC = 0.596

[211] setRegister dac_ibias 68 0

[212] delay 1000

[213] readAnalogOut 0
|14:33:00.172|    (INFO) [H2M] Reading analog out, ADC = 0.593

[214] setRegister dac_ibias 69 0

[215] delay 1000

[216] readAnalogOut 0
|14:33:01.173|    (INFO) [H2M] Reading analog out, ADC = 0.59

[217] setRegister dac_ibias 70 0

[218] delay 1000

[219] readAnalogOut 0
|14:33:02.174|    (INFO) [H2M] Reading analog out, ADC = 0.588

[220] setRegister dac_ibias 71 0

[221] delay 1000

[222] readAnalogOut 0
|14:33:03.175|    (INFO) [H2M] Reading analog out, ADC = 0.585

[223] setRegister dac_ibias 72 0

[224] delay 1000

[225] readAnalogOut 0
|14:33:04.176|    (INFO) [H2M] Reading analog out, ADC = 0.583

[226] setRegister dac_ibias 73 0

[227] delay 1000

[228] readAnalogOut 0
|14:33:05.176|    (INFO) [H2M] Reading analog out, ADC = 0.58

[229] setRegister dac_ibias 74 0

[230] delay 1000

[231] readAnalogOut 0
|14:33:06.177|    (INFO) [H2M] Reading analog out, ADC = 0.577

[232] setRegister dac_ibias 75 0

[233] delay 1000

[234] readAnalogOut 0
|14:33:07.178|    (INFO) [H2M] Reading analog out, ADC = 0.575

[235] setRegister dac_ibias 76 0

[236] delay 1000

[237] readAnalogOut 0
|14:33:08.179|    (INFO) [H2M] Reading analog out, ADC = 0.572

[238] setRegister dac_ibias 77 0

[239] delay 1000

[240] readAnalogOut 0
|14:33:09.180|    (INFO) [H2M] Reading analog out, ADC = 0.569

[241] setRegister dac_ibias 78 0

[242] delay 1000

[243] readAnalogOut 0
|14:33:10.181|    (INFO) [H2M] Reading analog out, ADC = 0.567

[244] setRegister dac_ibias 79 0

[245] delay 1000

[246] readAnalogOut 0
|14:33:11.181|    (INFO) [H2M] Reading analog out, ADC = 0.564

[247] setRegister dac_ibias 80 0

[248] delay 1000

[249] readAnalogOut 0
|14:33:12.182|    (INFO) [H2M] Reading analog out, ADC = 0.562

[250] setRegister dac_ibias 81 0

[251] delay 1000

[252] readAnalogOut 0
|14:33:13.183|    (INFO) [H2M] Reading analog out, ADC = 0.56

[253] setRegister dac_ibias 82 0

[254] delay 1000

[255] readAnalogOut 0
|14:33:14.184|    (INFO) [H2M] Reading analog out, ADC = 0.557

[256] setRegister dac_ibias 83 0

[257] delay 1000

[258] readAnalogOut 0
|14:33:15.185|    (INFO) [H2M] Reading analog out, ADC = 0.554

[259] setRegister dac_ibias 84 0

[260] delay 1000

[261] readAnalogOut 0
|14:33:16.185|    (INFO) [H2M] Reading analog out, ADC = 0.551

[262] setRegister dac_ibias 85 0

[263] delay 1000

[264] readAnalogOut 0
|14:33:17.186|    (INFO) [H2M] Reading analog out, ADC = 0.549

[265] setRegister dac_ibias 86 0

[266] delay 1000

[267] readAnalogOut 0
|14:33:18.187|    (INFO) [H2M] Reading analog out, ADC = 0.547

[268] setRegister dac_ibias 87 0

[269] delay 1000

[270] readAnalogOut 0
|14:33:19.188|    (INFO) [H2M] Reading analog out, ADC = 0.544

[271] setRegister dac_ibias 88 0

[272] delay 1000

[273] readAnalogOut 0
|14:33:20.189|    (INFO) [H2M] Reading analog out, ADC = 0.542

[274] setRegister dac_ibias 89 0

[275] delay 1000

[276] readAnalogOut 0
|14:33:21.189|    (INFO) [H2M] Reading analog out, ADC = 0.539

[277] setRegister dac_ibias 90 0

[278] delay 1000

[279] readAnalogOut 0
|14:33:22.190|    (INFO) [H2M] Reading analog out, ADC = 0.537

[280] setRegister dac_ibias 91 0

[281] delay 1000

[282] readAnalogOut 0
|14:33:23.191|    (INFO) [H2M] Reading analog out, ADC = 0.534

[283] setRegister dac_ibias 92 0

[284] delay 1000

[285] readAnalogOut 0
|14:33:24.192|    (INFO) [H2M] Reading analog out, ADC = 0.532

[286] setRegister dac_ibias 93 0

[287] delay 1000

[288] readAnalogOut 0
|14:33:25.193|    (INFO) [H2M] Reading analog out, ADC = 0.529

[289] setRegister dac_ibias 94 0

[290] delay 1000

[291] readAnalogOut 0
|14:33:26.194|    (INFO) [H2M] Reading analog out, ADC = 0.528

[292] setRegister dac_ibias 95 0

[293] delay 1000

[294] readAnalogOut 0
|14:33:27.194|    (INFO) [H2M] Reading analog out, ADC = 0.525

[295] setRegister dac_ibias 96 0

[296] delay 1000

[297] readAnalogOut 0
|14:33:28.195|    (INFO) [H2M] Reading analog out, ADC = 0.524

[298] setRegister dac_ibias 97 0

[299] delay 1000

[300] readAnalogOut 0
|14:33:29.196|    (INFO) [H2M] Reading analog out, ADC = 0.521

[301] setRegister dac_ibias 98 0

[302] delay 1000

[303] readAnalogOut 0
|14:33:30.197|    (INFO) [H2M] Reading analog out, ADC = 0.518

[304] setRegister dac_ibias 99 0

[305] delay 1000

[306] readAnalogOut 0
|14:33:31.198|    (INFO) [H2M] Reading analog out, ADC = 0.516

[307] setRegister dac_ibias 100 0

[308] delay 1000

[309] readAnalogOut 0
|14:33:32.199|    (INFO) [H2M] Reading analog out, ADC = 0.514

[310] setRegister dac_ibias 101 0

[311] delay 1000

[312] readAnalogOut 0
|14:33:33.199|    (INFO) [H2M] Reading analog out, ADC = 0.512

[313] setRegister dac_ibias 102 0

[314] delay 1000

[315] readAnalogOut 0
|14:33:34.200|    (INFO) [H2M] Reading analog out, ADC = 0.509

[316] setRegister dac_ibias 103 0

[317] delay 1000

[318] readAnalogOut 0
|14:33:35.201|    (INFO) [H2M] Reading analog out, ADC = 0.508

[319] setRegister dac_ibias 104 0

[320] delay 1000

[321] readAnalogOut 0
|14:33:36.202|    (INFO) [H2M] Reading analog out, ADC = 0.505

[322] setRegister dac_ibias 105 0

[323] delay 1000

[324] readAnalogOut 0
|14:33:37.203|    (INFO) [H2M] Reading analog out, ADC = 0.503

[325] setRegister dac_ibias 106 0

[326] delay 1000

[327] readAnalogOut 0
|14:33:38.203|    (INFO) [H2M] Reading analog out, ADC = 0.501

[328] setRegister dac_ibias 107 0

[329] delay 1000

[330] readAnalogOut 0
|14:33:39.204|    (INFO) [H2M] Reading analog out, ADC = 0.499

[331] setRegister dac_ibias 108 0

[332] delay 1000

[333] readAnalogOut 0
|14:33:40.205|    (INFO) [H2M] Reading analog out, ADC = 0.497

[334] setRegister dac_ibias 109 0

[335] delay 1000

[336] readAnalogOut 0
|14:33:41.206|    (INFO) [H2M] Reading analog out, ADC = 0.494

[337] setRegister dac_ibias 110 0

[338] delay 1000

[339] readAnalogOut 0
|14:33:42.207|    (INFO) [H2M] Reading analog out, ADC = 0.492

[340] setRegister dac_ibias 111 0

[341] delay 1000

[342] readAnalogOut 0
|14:33:43.207|    (INFO) [H2M] Reading analog out, ADC = 0.49

[343] setRegister dac_ibias 112 0

[344] delay 1000

[345] readAnalogOut 0
|14:33:44.208|    (INFO) [H2M] Reading analog out, ADC = 0.487

[346] setRegister dac_ibias 113 0

[347] delay 1000

[348] readAnalogOut 0
|14:33:45.209|    (INFO) [H2M] Reading analog out, ADC = 0.485

[349] setRegister dac_ibias 114 0

[350] delay 1000

[351] readAnalogOut 0
|14:33:46.210|    (INFO) [H2M] Reading analog out, ADC = 0.483

[352] setRegister dac_ibias 115 0

[353] delay 1000

[354] readAnalogOut 0
|14:33:47.211|    (INFO) [H2M] Reading analog out, ADC = 0.481

[355] setRegister dac_ibias 116 0

[356] delay 1000

[357] readAnalogOut 0
|14:33:48.211|    (INFO) [H2M] Reading analog out, ADC = 0.479

[358] setRegister dac_ibias 117 0

[359] delay 1000

[360] readAnalogOut 0
|14:33:49.212|    (INFO) [H2M] Reading analog out, ADC = 0.477

[361] setRegister dac_ibias 118 0

[362] delay 1000

[363] readAnalogOut 0
|14:33:50.213|    (INFO) [H2M] Reading analog out, ADC = 0.475

[364] setRegister dac_ibias 119 0

[365] delay 1000

[366] readAnalogOut 0
|14:33:51.214|    (INFO) [H2M] Reading analog out, ADC = 0.473

[367] setRegister dac_ibias 120 0

[368] delay 1000

[369] readAnalogOut 0
|14:33:52.215|    (INFO) [H2M] Reading analog out, ADC = 0.47

[370] setRegister dac_ibias 121 0

[371] delay 1000

[372] readAnalogOut 0
|14:33:53.215|    (INFO) [H2M] Reading analog out, ADC = 0.469

[373] setRegister dac_ibias 122 0

[374] delay 1000

[375] readAnalogOut 0
|14:33:54.216|    (INFO) [H2M] Reading analog out, ADC = 0.467

[376] setRegister dac_ibias 123 0

[377] delay 1000

[378] readAnalogOut 0
|14:33:55.217|    (INFO) [H2M] Reading analog out, ADC = 0.465

[379] setRegister dac_ibias 124 0

[380] delay 1000

[381] readAnalogOut 0
|14:33:56.218|    (INFO) [H2M] Reading analog out, ADC = 0.463

[382] setRegister dac_ibias 125 0

[383] delay 1000

[384] readAnalogOut 0
|14:33:57.219|    (INFO) [H2M] Reading analog out, ADC = 0.461

[385] setRegister dac_ibias 126 0

[386] delay 1000

[387] readAnalogOut 0
|14:33:58.220|    (INFO) [H2M] Reading analog out, ADC = 0.459

[388] setRegister dac_ibias 127 0

[389] delay 1000

[390] readAnalogOut 0
|14:33:59.220|    (INFO) [H2M] Reading analog out, ADC = 0.457

[391] setRegister dac_ibias 128 0

[392] delay 1000

[393] readAnalogOut 0
|14:34:00.221|    (INFO) [H2M] Reading analog out, ADC = 0.455

[394] setRegister dac_ibias 129 0

[395] delay 1000

[396] readAnalogOut 0
|14:34:01.222|    (INFO) [H2M] Reading analog out, ADC = 0.453

[397] setRegister dac_ibias 130 0

[398] delay 1000

[399] readAnalogOut 0
|14:34:02.223|    (INFO) [H2M] Reading analog out, ADC = 0.451

[400] setRegister dac_ibias 131 0

[401] delay 1000

[402] readAnalogOut 0
|14:34:03.224|    (INFO) [H2M] Reading analog out, ADC = 0.449

[403] setRegister dac_ibias 132 0

[404] delay 1000

[405] readAnalogOut 0
|14:34:04.225|    (INFO) [H2M] Reading analog out, ADC = 0.447

[406] setRegister dac_ibias 133 0

[407] delay 1000

[408] readAnalogOut 0
|14:34:05.225|    (INFO) [H2M] Reading analog out, ADC = 0.446

[409] setRegister dac_ibias 134 0

[410] delay 1000

[411] readAnalogOut 0
|14:34:06.226|    (INFO) [H2M] Reading analog out, ADC = 0.443

[412] setRegister dac_ibias 135 0

[413] delay 1000

[414] readAnalogOut 0
|14:34:07.227|    (INFO) [H2M] Reading analog out, ADC = 0.442

[415] setRegister dac_ibias 136 0

[416] delay 1000

[417] readAnalogOut 0
|14:34:08.228|    (INFO) [H2M] Reading analog out, ADC = 0.44

[418] setRegister dac_ibias 137 0

[419] delay 1000

[420] readAnalogOut 0
|14:34:09.229|    (INFO) [H2M] Reading analog out, ADC = 0.438

[421] setRegister dac_ibias 138 0

[422] delay 1000

[423] readAnalogOut 0
|14:34:10.229|    (INFO) [H2M] Reading analog out, ADC = 0.436

[424] setRegister dac_ibias 139 0

[425] delay 1000

[426] readAnalogOut 0
|14:34:11.230|    (INFO) [H2M] Reading analog out, ADC = 0.434

[427] setRegister dac_ibias 140 0

[428] delay 1000

[429] readAnalogOut 0
|14:34:12.231|    (INFO) [H2M] Reading analog out, ADC = 0.432

[430] setRegister dac_ibias 141 0

[431] delay 1000

[432] readAnalogOut 0
|14:34:13.232|    (INFO) [H2M] Reading analog out, ADC = 0.431

[433] setRegister dac_ibias 142 0

[434] delay 1000

[435] readAnalogOut 0
|14:34:14.233|    (INFO) [H2M] Reading analog out, ADC = 0.429

[436] setRegister dac_ibias 143 0

[437] delay 1000

[438] readAnalogOut 0
|14:34:15.234|    (INFO) [H2M] Reading analog out, ADC = 0.427

[439] setRegister dac_ibias 144 0

[440] delay 1000

[441] readAnalogOut 0
|14:34:16.234|    (INFO) [H2M] Reading analog out, ADC = 0.424

[442] setRegister dac_ibias 145 0

[443] delay 1000

[444] readAnalogOut 0
|14:34:17.235|    (INFO) [H2M] Reading analog out, ADC = 0.423

[445] setRegister dac_ibias 146 0

[446] delay 1000

[447] readAnalogOut 0
|14:34:18.236|    (INFO) [H2M] Reading analog out, ADC = 0.421

[448] setRegister dac_ibias 147 0

[449] delay 1000

[450] readAnalogOut 0
|14:34:19.237|    (INFO) [H2M] Reading analog out, ADC = 0.419

[451] setRegister dac_ibias 148 0

[452] delay 1000

[453] readAnalogOut 0
|14:34:20.238|    (INFO) [H2M] Reading analog out, ADC = 0.417

[454] setRegister dac_ibias 149 0

[455] delay 1000

[456] readAnalogOut 0
|14:34:21.239|    (INFO) [H2M] Reading analog out, ADC = 0.416

[457] setRegister dac_ibias 150 0

[458] delay 1000

[459] readAnalogOut 0
|14:34:22.239|    (INFO) [H2M] Reading analog out, ADC = 0.414

[460] setRegister dac_ibias 151 0

[461] delay 1000

[462] readAnalogOut 0
|14:34:23.240|    (INFO) [H2M] Reading analog out, ADC = 0.412

[463] setRegister dac_ibias 152 0

[464] delay 1000

[465] readAnalogOut 0
|14:34:24.241|    (INFO) [H2M] Reading analog out, ADC = 0.411

[466] setRegister dac_ibias 153 0

[467] delay 1000

[468] readAnalogOut 0
|14:34:25.242|    (INFO) [H2M] Reading analog out, ADC = 0.409

[469] setRegister dac_ibias 154 0

[470] delay 1000

[471] readAnalogOut 0
|14:34:26.243|    (INFO) [H2M] Reading analog out, ADC = 0.407

[472] setRegister dac_ibias 155 0

[473] delay 1000

[474] readAnalogOut 0
|14:34:27.244|    (INFO) [H2M] Reading analog out, ADC = 0.406

[475] setRegister dac_ibias 156 0

[476] delay 1000

[477] readAnalogOut 0
|14:34:28.244|    (INFO) [H2M] Reading analog out, ADC = 0.403

[478] setRegister dac_ibias 157 0

[479] delay 1000

[480] readAnalogOut 0
|14:34:29.245|    (INFO) [H2M] Reading analog out, ADC = 0.401

[481] setRegister dac_ibias 158 0

[482] delay 1000

[483] readAnalogOut 0
|14:34:30.246|    (INFO) [H2M] Reading analog out, ADC = 0.4

[484] setRegister dac_ibias 159 0

[485] delay 1000

[486] readAnalogOut 0
|14:34:31.247|    (INFO) [H2M] Reading analog out, ADC = 0.399

[487] setRegister dac_ibias 160 0

[488] delay 1000

[489] readAnalogOut 0
|14:34:32.248|    (INFO) [H2M] Reading analog out, ADC = 0.396

[490] setRegister dac_ibias 161 0

[491] delay 1000

[492] readAnalogOut 0
|14:34:33.248|    (INFO) [H2M] Reading analog out, ADC = 0.395

[493] setRegister dac_ibias 162 0

[494] delay 1000

[495] readAnalogOut 0
|14:34:34.249|    (INFO) [H2M] Reading analog out, ADC = 0.393

[496] setRegister dac_ibias 163 0

[497] delay 1000

[498] readAnalogOut 0
|14:34:35.250|    (INFO) [H2M] Reading analog out, ADC = 0.392

[499] setRegister dac_ibias 164 0

[500] delay 1000

[501] readAnalogOut 0
|14:34:36.251|    (INFO) [H2M] Reading analog out, ADC = 0.39

[502] setRegister dac_ibias 165 0

[503] delay 1000

[504] readAnalogOut 0
|14:34:37.252|    (INFO) [H2M] Reading analog out, ADC = 0.388

[505] setRegister dac_ibias 166 0

[506] delay 1000

[507] readAnalogOut 0
|14:34:38.253|    (INFO) [H2M] Reading analog out, ADC = 0.386

[508] setRegister dac_ibias 167 0

[509] delay 1000

[510] readAnalogOut 0
|14:34:39.254|    (INFO) [H2M] Reading analog out, ADC = 0.384

[511] setRegister dac_ibias 168 0

[512] delay 1000

[513] readAnalogOut 0
|14:34:40.254|    (INFO) [H2M] Reading analog out, ADC = 0.383

[514] setRegister dac_ibias 169 0

[515] delay 1000

[516] readAnalogOut 0
|14:34:41.255|    (INFO) [H2M] Reading analog out, ADC = 0.381

[517] setRegister dac_ibias 170 0

[518] delay 1000

[519] readAnalogOut 0
|14:34:42.256|    (INFO) [H2M] Reading analog out, ADC = 0.38

[520] setRegister dac_ibias 171 0

[521] delay 1000

[522] readAnalogOut 0
|14:34:43.257|    (INFO) [H2M] Reading analog out, ADC = 0.378

[523] setRegister dac_ibias 172 0

[524] delay 1000

[525] readAnalogOut 0
|14:34:44.258|    (INFO) [H2M] Reading analog out, ADC = 0.376

[526] setRegister dac_ibias 173 0

[527] delay 1000

[528] readAnalogOut 0
|14:34:45.258|    (INFO) [H2M] Reading analog out, ADC = 0.375

[529] setRegister dac_ibias 174 0

[530] delay 1000

[531] readAnalogOut 0
|14:34:46.259|    (INFO) [H2M] Reading analog out, ADC = 0.373

[532] setRegister dac_ibias 175 0

[533] delay 1000

[534] readAnalogOut 0
|14:34:47.260|    (INFO) [H2M] Reading analog out, ADC = 0.371

[535] setRegister dac_ibias 176 0

[536] delay 1000

[537] readAnalogOut 0
|14:34:48.261|    (INFO) [H2M] Reading analog out, ADC = 0.371

[538] setRegister dac_ibias 177 0

[539] delay 1000

[540] readAnalogOut 0
|14:34:49.262|    (INFO) [H2M] Reading analog out, ADC = 0.369

[541] setRegister dac_ibias 178 0

[542] delay 1000

[543] readAnalogOut 0
|14:34:50.262|    (INFO) [H2M] Reading analog out, ADC = 0.366

[544] setRegister dac_ibias 179 0

[545] delay 1000

[546] readAnalogOut 0
|14:34:51.263|    (INFO) [H2M] Reading analog out, ADC = 0.365

[547] setRegister dac_ibias 180 0

[548] delay 1000

[549] readAnalogOut 0
|14:34:52.264|    (INFO) [H2M] Reading analog out, ADC = 0.363

[550] setRegister dac_ibias 181 0

[551] delay 1000

[552] readAnalogOut 0
|14:34:53.265|    (INFO) [H2M] Reading analog out, ADC = 0.362

[553] setRegister dac_ibias 182 0

[554] delay 1000

[555] readAnalogOut 0
|14:34:54.266|    (INFO) [H2M] Reading analog out, ADC = 0.36

[556] setRegister dac_ibias 183 0

[557] delay 1000

[558] readAnalogOut 0
|14:34:55.267|    (INFO) [H2M] Reading analog out, ADC = 0.358

[559] setRegister dac_ibias 184 0

[560] delay 1000

[561] readAnalogOut 0
|14:34:56.267|    (INFO) [H2M] Reading analog out, ADC = 0.357

[562] setRegister dac_ibias 185 0

[563] delay 1000

[564] readAnalogOut 0
|14:34:57.268|    (INFO) [H2M] Reading analog out, ADC = 0.355

[565] setRegister dac_ibias 186 0

[566] delay 1000

[567] readAnalogOut 0
|14:34:58.269|    (INFO) [H2M] Reading analog out, ADC = 0.353

[568] setRegister dac_ibias 187 0

[569] delay 1000

[570] readAnalogOut 0
|14:34:59.270|    (INFO) [H2M] Reading analog out, ADC = 0.352

[571] setRegister dac_ibias 188 0

[572] delay 1000

[573] readAnalogOut 0
|14:35:00.271|    (INFO) [H2M] Reading analog out, ADC = 0.351

[574] setRegister dac_ibias 189 0

[575] delay 1000

[576] readAnalogOut 0
|14:35:01.271|    (INFO) [H2M] Reading analog out, ADC = 0.35

[577] setRegister dac_ibias 190 0

[578] delay 1000

[579] readAnalogOut 0
|14:35:02.272|    (INFO) [H2M] Reading analog out, ADC = 0.347

[580] setRegister dac_ibias 191 0

[581] delay 1000

[582] readAnalogOut 0
|14:35:03.273|    (INFO) [H2M] Reading analog out, ADC = 0.345

[583] setRegister dac_ibias 192 0

[584] delay 1000

[585] readAnalogOut 0
|14:35:04.274|    (INFO) [H2M] Reading analog out, ADC = 0.345

[586] setRegister dac_ibias 193 0

[587] delay 1000

[588] readAnalogOut 0
|14:35:05.275|    (INFO) [H2M] Reading analog out, ADC = 0.343

[589] setRegister dac_ibias 194 0

[590] delay 1000

[591] readAnalogOut 0
|14:35:06.275|    (INFO) [H2M] Reading analog out, ADC = 0.342

[592] setRegister dac_ibias 195 0

[593] delay 1000

[594] readAnalogOut 0
|14:35:07.276|    (INFO) [H2M] Reading analog out, ADC = 0.34

[595] setRegister dac_ibias 196 0

[596] delay 1000

[597] readAnalogOut 0
|14:35:08.277|    (INFO) [H2M] Reading analog out, ADC = 0.339

[598] setRegister dac_ibias 197 0

[599] delay 1000

[600] readAnalogOut 0
|14:35:09.278|    (INFO) [H2M] Reading analog out, ADC = 0.336

[601] setRegister dac_ibias 198 0

[602] delay 1000

[603] readAnalogOut 0
|14:35:10.279|    (INFO) [H2M] Reading analog out, ADC = 0.335

[604] setRegister dac_ibias 199 0

[605] delay 1000

[606] readAnalogOut 0
|14:35:11.280|    (INFO) [H2M] Reading analog out, ADC = 0.335

[607] setRegister dac_ibias 200 0

[608] delay 1000

[609] readAnalogOut 0
|14:35:12.280|    (INFO) [H2M] Reading analog out, ADC = 0.332

[610] setRegister dac_ibias 201 0

[611] delay 1000

[612] readAnalogOut 0
|14:35:13.281|    (INFO) [H2M] Reading analog out, ADC = 0.331

[613] setRegister dac_ibias 202 0

[614] delay 1000

[615] readAnalogOut 0
|14:35:14.282|    (INFO) [H2M] Reading analog out, ADC = 0.329

[616] setRegister dac_ibias 203 0

[617] delay 1000

[618] readAnalogOut 0
|14:35:15.283|    (INFO) [H2M] Reading analog out, ADC = 0.327

[619] setRegister dac_ibias 204 0

[620] delay 1000

[621] readAnalogOut 0
|14:35:16.284|    (INFO) [H2M] Reading analog out, ADC = 0.326

[622] setRegister dac_ibias 205 0

[623] delay 1000

[624] readAnalogOut 0
|14:35:17.285|    (INFO) [H2M] Reading analog out, ADC = 0.325

[625] setRegister dac_ibias 206 0

[626] delay 1000

[627] readAnalogOut 0
|14:35:18.285|    (INFO) [H2M] Reading analog out, ADC = 0.323

[628] setRegister dac_ibias 207 0

[629] delay 1000

[630] readAnalogOut 0
|14:35:19.286|    (INFO) [H2M] Reading analog out, ADC = 0.321

[631] setRegister dac_ibias 208 0

[632] delay 1000

[633] readAnalogOut 0
|14:35:20.287|    (INFO) [H2M] Reading analog out, ADC = 0.32

[634] setRegister dac_ibias 209 0

[635] delay 1000

[636] readAnalogOut 0
|14:35:21.288|    (INFO) [H2M] Reading analog out, ADC = 0.319

[637] setRegister dac_ibias 210 0

[638] delay 1000

[639] readAnalogOut 0
|14:35:22.288|    (INFO) [H2M] Reading analog out, ADC = 0.317

[640] setRegister dac_ibias 211 0

[641] delay 1000

[642] readAnalogOut 0
|14:35:23.289|    (INFO) [H2M] Reading analog out, ADC = 0.316

[643] setRegister dac_ibias 212 0

[644] delay 1000

[645] readAnalogOut 0
|14:35:24.290|    (INFO) [H2M] Reading analog out, ADC = 0.314

[646] setRegister dac_ibias 213 0

[647] delay 1000

[648] readAnalogOut 0
|14:35:25.291|    (INFO) [H2M] Reading analog out, ADC = 0.313

[649] setRegister dac_ibias 214 0

[650] delay 1000

[651] readAnalogOut 0
|14:35:26.292|    (INFO) [H2M] Reading analog out, ADC = 0.311

[652] setRegister dac_ibias 215 0

[653] delay 1000

[654] readAnalogOut 0
|14:35:27.293|    (INFO) [H2M] Reading analog out, ADC = 0.31

[655] setRegister dac_ibias 216 0

[656] delay 1000

[657] readAnalogOut 0
|14:35:28.293|    (INFO) [H2M] Reading analog out, ADC = 0.308

[658] setRegister dac_ibias 217 0

[659] delay 1000

[660] readAnalogOut 0
|14:35:29.294|    (INFO) [H2M] Reading analog out, ADC = 0.307

[661] setRegister dac_ibias 218 0

[662] delay 1000

[663] readAnalogOut 0
|14:35:30.295|    (INFO) [H2M] Reading analog out, ADC = 0.305

[664] setRegister dac_ibias 219 0

[665] delay 1000

[666] readAnalogOut 0
|14:35:31.296|    (INFO) [H2M] Reading analog out, ADC = 0.304

[667] setRegister dac_ibias 220 0

[668] delay 1000

[669] readAnalogOut 0
|14:35:32.297|    (INFO) [H2M] Reading analog out, ADC = 0.302

[670] setRegister dac_ibias 221 0

[671] delay 1000

[672] readAnalogOut 0
|14:35:33.297|    (INFO) [H2M] Reading analog out, ADC = 0.301

[673] setRegister dac_ibias 222 0

[674] delay 1000

[675] readAnalogOut 0
|14:35:34.298|    (INFO) [H2M] Reading analog out, ADC = 0.3

[676] setRegister dac_ibias 223 0

[677] delay 1000

[678] readAnalogOut 0
|14:35:35.299|    (INFO) [H2M] Reading analog out, ADC = 0.298

[679] setRegister dac_ibias 224 0

[680] delay 1000

[681] readAnalogOut 0
|14:35:36.300|    (INFO) [H2M] Reading analog out, ADC = 0.296

[682] setRegister dac_ibias 225 0

[683] delay 1000

[684] readAnalogOut 0
|14:35:37.301|    (INFO) [H2M] Reading analog out, ADC = 0.295

[685] setRegister dac_ibias 226 0

[686] delay 1000

[687] readAnalogOut 0
|14:35:38.301|    (INFO) [H2M] Reading analog out, ADC = 0.293

[688] setRegister dac_ibias 227 0

[689] delay 1000

[690] readAnalogOut 0
|14:35:39.302|    (INFO) [H2M] Reading analog out, ADC = 0.293

[691] setRegister dac_ibias 228 0

[692] delay 1000

[693] readAnalogOut 0
|14:35:40.303|    (INFO) [H2M] Reading analog out, ADC = 0.291

[694] setRegister dac_ibias 229 0

[695] delay 1000

[696] readAnalogOut 0
|14:35:41.304|    (INFO) [H2M] Reading analog out, ADC = 0.289

[697] setRegister dac_ibias 230 0

[698] delay 1000

[699] readAnalogOut 0
|14:35:42.305|    (INFO) [H2M] Reading analog out, ADC = 0.289

[700] setRegister dac_ibias 231 0

[701] delay 1000

[702] readAnalogOut 0
|14:35:43.306|    (INFO) [H2M] Reading analog out, ADC = 0.287

[703] setRegister dac_ibias 232 0

[704] delay 1000

[705] readAnalogOut 0
|14:35:44.306|    (INFO) [H2M] Reading analog out, ADC = 0.286

[706] setRegister dac_ibias 233 0

[707] delay 1000

[708] readAnalogOut 0
|14:35:45.307|    (INFO) [H2M] Reading analog out, ADC = 0.284

[709] setRegister dac_ibias 234 0

[710] delay 1000

[711] readAnalogOut 0
|14:35:46.308|    (INFO) [H2M] Reading analog out, ADC = 0.283

[712] setRegister dac_ibias 235 0

[713] delay 1000

[714] readAnalogOut 0
|14:35:47.309|    (INFO) [H2M] Reading analog out, ADC = 0.282

[715] setRegister dac_ibias 236 0

[716] delay 1000

[717] readAnalogOut 0
|14:35:48.310|    (INFO) [H2M] Reading analog out, ADC = 0.28

[718] setRegister dac_ibias 237 0

[719] delay 1000

[720] readAnalogOut 0
|14:35:49.311|    (INFO) [H2M] Reading analog out, ADC = 0.279

[721] setRegister dac_ibias 238 0

[722] delay 1000

[723] readAnalogOut 0
|14:35:50.311|    (INFO) [H2M] Reading analog out, ADC = 0.277

[724] setRegister dac_ibias 239 0

[725] delay 1000

[726] readAnalogOut 0
|14:35:51.312|    (INFO) [H2M] Reading analog out, ADC = 0.276

[727] setRegister dac_ibias 240 0

[728] delay 1000

[729] readAnalogOut 0
|14:35:52.313|    (INFO) [H2M] Reading analog out, ADC = 0.274

[730] setRegister dac_ibias 241 0

[731] delay 1000

[732] readAnalogOut 0
|14:35:53.314|    (INFO) [H2M] Reading analog out, ADC = 0.273

[733] setRegister dac_ibias 242 0

[734] delay 1000

[735] readAnalogOut 0
|14:35:54.315|    (INFO) [H2M] Reading analog out, ADC = 0.272

[736] setRegister dac_ibias 243 0

[737] delay 1000

[738] readAnalogOut 0
|14:35:55.316|    (INFO) [H2M] Reading analog out, ADC = 0.27

[739] setRegister dac_ibias 244 0

[740] delay 1000

[741] readAnalogOut 0
|14:35:56.316|    (INFO) [H2M] Reading analog out, ADC = 0.27

[742] setRegister dac_ibias 245 0

[743] delay 1000

[744] readAnalogOut 0
|14:35:57.317|    (INFO) [H2M] Reading analog out, ADC = 0.268

[745] setRegister dac_ibias 246 0

[746] delay 1000

[747] readAnalogOut 0
|14:35:58.318|    (INFO) [H2M] Reading analog out, ADC = 0.267

[748] setRegister dac_ibias 247 0

[749] delay 1000

[750] readAnalogOut 0
|14:35:59.319|    (INFO) [H2M] Reading analog out, ADC = 0.265

[751] setRegister dac_ibias 248 0

[752] delay 1000

[753] readAnalogOut 0
|14:36:00.320|    (INFO) [H2M] Reading analog out, ADC = 0.264

[754] setRegister dac_ibias 249 0

[755] delay 1000

[756] readAnalogOut 0
|14:36:01.320|    (INFO) [H2M] Reading analog out, ADC = 0.263

[757] setRegister dac_ibias 250 0

[758] delay 1000

[759] readAnalogOut 0
|14:36:02.321|    (INFO) [H2M] Reading analog out, ADC = 0.262

[760] setRegister dac_ibias 251 0

[761] delay 1000

[762] readAnalogOut 0
|14:36:03.322|    (INFO) [H2M] Reading analog out, ADC = 0.26

[763] setRegister dac_ibias 252 0

[764] delay 1000

[765] readAnalogOut 0
|14:36:04.323|    (INFO) [H2M] Reading analog out, ADC = 0.259

[766] setRegister dac_ibias 253 0

[767] delay 1000

[768] readAnalogOut 0
|14:36:05.324|    (INFO) [H2M] Reading analog out, ADC = 0.258

[769] setRegister dac_ibias 254 0

[770] delay 1000

[771] readAnalogOut 0
|14:36:06.324|    (INFO) [H2M] Reading analog out, ADC = 0.256

[772] setRegister dac_ibias 255 0

[773] delay 1000

[774] readAnalogOut 0
|14:36:07.325|    (INFO) [H2M] Reading analog out, ADC = 0.255
